…
```{.r .cell-code}
set.seed(35)
formula_res <-
  svm_mod %>% 
  tune_grid(
    Class ~ .,
    resamples = iono_rs,
    metrics = roc_vals,
    control = ctrl
  )
formula_res
#> # Tuning results
#> # Bootstrap sampling 
#> # A tibble: 30 × 5
#>    splits            id          .metrics          .notes           .predictions
#>    <list>            <chr>       <list>            <list>           <list>      
#>  1 <split [351/120]> Bootstrap01 <tibble [10 × 6]> <tibble [0 × 3]> <tibble>    
#>  2 <split [351/130]> Bootstrap02 <tibble [10 × 6]> <tibble [0 × 3]> <tibble>    
#>  3 <split [351/137]> Bootstrap03 <tibble [10 × 6]> <tibble [0 × 3]> <tibble>    
#>  4 <split [351/141]> Bootstrap04 <tibble [10 × 6]> <tibble [0 × 3]> <tibble>    
#>  5 <split [351/131]> Bootstrap05 <tibble [10 × 6]> <tibble [0 × 3]> <tibble>    
#>  6 <split [351/131]> Bootstrap06 <tibble [10 × 6]> <tibble [0 × 3]> <tibble>    
#>  7 <split [351/127]> Bootstrap07 <tibble [10 × 6]> <tibble [0 × 3]> <tibble>    
#>  8 <split [351/123]> Bootstrap08 <tibble [10 × 6]> <tibble [0 × 3]> <tibble>    
#>  9 <split [351/131]> Bootstrap09 <tibble [10 × 6]> <tibble [0 × 3]> <tibble>    
#> 10 <split [351/117]> Bootstrap10 <tibble [10 × 6]> <tibble [0 × 3]> <tibble>    
#> # ℹ 20 more rows
```
…
```{.r .cell-code}
set.seed(325)
recipe_res <-
  svm_mod %>% 
  tune_grid(
    iono_rec,
    resamples = iono_rs,
    metrics = roc_vals,
    control = ctrl
  )
recipe_res
#> # Tuning results
#> # Bootstrap sampling 
#> # A tibble: 30 × 5
#>    splits            id          .metrics          .notes           .predictions
#>    <list>            <chr>       <list>            <list>           <list>      
#>  1 <split [351/120]> Bootstrap01 <tibble [10 × 6]> <tibble [0 × 3]> <tibble>    
#>  2 <split [351/130]> Bootstrap02 <tibble [10 × 6]> <tibble [0 × 3]> <tibble>    
#>  3 <split [351/137]> Bootstrap03 <tibble [10 × 6]> <tibble [0 × 3]> <tibble>    
#>  4 <split [351/141]> Bootstrap04 <tibble [10 × 6]> <tibble [0 × 3]> <tibble>    
#>  5 <split [351/131]> Bootstrap05 <tibble [10 × 6]> <tibble [0 × 3]> <tibble>    
#>  6 <split [351/131]> Bootstrap06 <tibble [10 × 6]> <tibble [0 × 3]> <tibble>    
#>  7 <split [351/127]> Bootstrap07 <tibble [10 × 6]> <tibble [0 × 3]> <tibble>    
#>  8 <split [351/123]> Bootstrap08 <tibble [10 × 6]> <tibble [0 × 3]> <tibble>    
#>  9 <split [351/131]> Bootstrap09 <tibble [10 × 6]> <tibble [0 × 3]> <tibble>    
#> 10 <split [351/117]> Bootstrap10 <tibble [10 × 6]> <tibble [0 × 3]> <tibble>    
#> # ℹ 20 more rows
```
…
## Out-of-sample predictions

If we used `save_pred = TRUE` to keep the out-of-sample predictions for each resample during tuning, we can obtain those predictions, along with the tuning parameters and resample identifier, using `collect_predictions()`:




::: {.cell layout-align="center"}

```{.r .cell-code}
collect_predictions(recipe_res)
#> # A tibble: 38,740 × 8
#>    .pred_bad .pred_good id           .row     cost   rbf_sigma Class .config    
#>        <dbl>      <dbl> <chr>       <int>    <dbl>       <dbl> <fct> <chr>      
#>  1     0.333      0.667 Bootstrap01     1 0.000977 0.000000215 good  Preprocess…
#>  2     0.333      0.667 Bootstrap01     9 0.000977 0.000000215 good  Preprocess…
#>  3     0.333      0.667 Bootstrap01    10 0.000977 0.000000215 bad   Preprocess…
#>  4     0.333      0.667 Bootstrap01    12 0.000977 0.000000215 bad   Preprocess…
#>  5     0.333      0.667 Bootstrap01    14 0.000977 0.000000215 bad   Preprocess…
#>  6     0.333      0.667 Bootstrap01    15 0.000977 0.000000215 good  Preprocess…
#>  7     0.333      0.667 Bootstrap01    16 0.000977 0.000000215 bad   Preprocess…
#>  8     0.333      0.667 Bootstrap01    22 0.000977 0.000000215 bad   Preprocess…
#>  9     0.333      0.667 Bootstrap01    23 0.000977 0.000000215 good  Preprocess…
#> 10     0.333      0.667 Bootstrap01    24 0.000977 0.000000215 bad   Preprocess…
#> # ℹ 38,730 more rows
```
…
