tidymodels - Many Models
…
First, let’s load some packages:

library(tidymodels)
tidymodels_prefer()

gapminder

To motivate the power of many simple models, we’re going to look into the “gapminder” data. This data was popularised by Hans Rosling, a Swedish doctor and statistician. If you’ve never heard of him, stop reading this chapter right now and go watch one of his videos! He is a fantastic data presenter and illustrates how you can use data to present a compelling story. A good place to start is this short video filmed in conjunction with the BBC: https://www.youtube.com/watch?v=jbkSRLYSojo.

The gapminder data summarises the progression of countries over time, looking at statistics like life expectancy and GDP. The data is easy to access in R, thanks to Jenny Bryan who created the gapminder package:

library(gapminder)
gapminder
#> # A tibble: 1,704 × 6
#>    country     continent  year lifeExp      pop gdpPercap
#>    <fct>       <fct>     <int>   <dbl>    <int>     <dbl>
#>  1 Afghanistan Asia       1952    28.8  8425333      779.
#>  2 Afghanistan Asia       1957    30.3  9240934      821.
#>  3 Afghanistan Asia       1962    32.0 10267083      853.
#>  4 Afghanistan Asia       1967    34.0 11537966      836.
#>  5 Afghanistan Asia       1972    36.1 13079460      740.
#>  6 Afghanistan Asia       1977    38.4 14880372      786.
#>  7 Afghanistan Asia       1982    39.9 12881816      978.
#>  8 Afghanistan Asia       1987    40.8 13867957      852.
#>  9 Afghanistan Asia       1992    41.7 16317921      649.
#> 10 Afghanistan Asia       1997    41.8 22227415      635.
#> # … with 1,694 more rows
…
There is a data argument to augment(). The default uses the same data points that the model was trained on.

How can we easily fit that model to every country?

Nested data

You could imagine copy and pasting that code multiple times; but you’ve already learned a better way! Extract out the common code with a function and repeat using a map function from purrr. This problem is structured a little differently to what you’ve seen before. Instead of repeating an action for each variable, we want to repeat an action for each country, a subset of rows. To do that, we need a new data structure: the nested data frame. To create a nested data frame we start with a grouped data frame, and “nest” it:

by_country <- gapminder %>% 
  group_by(country, continent) %>% 
  nest()

by_country
#> # A tibble: 142 × 3
#> # Groups:   country, continent [142]
#>    country     continent data             
#>    <fct>       <fct>     <list>           
#>  1 Afghanistan Asia      <tibble [12 × 4]>
#>  2 Albania     Europe    <tibble [12 × 4]>
#>  3 Algeria     Africa    <tibble [12 × 4]>
#>  4 Angola      Africa    <tibble [12 × 4]>
#>  5 Argentina   Americas  <tibble [12 × 4]>
#>  6 Australia   Oceania   <tibble [12 × 4]>
#>  7 Austria     Europe    <tibble [12 × 4]>
#>  8 Bahrain     Asia      <tibble [12 × 4]>
#>  9 Bangladesh  Asia      <tibble [12 × 4]>
#> 10 Belgium     Europe    <tibble [12 × 4]>
#> # … with 132 more rows
…
And we want to apply it to every data frame. The data frames are in a list, so we can use purrr::map() to apply country_model to each element:

models <- map(by_country$data, country_model)

However, rather than leaving the list of models as a free-floating object, I think it’s better to store it as a column in the by_country data frame. Storing related objects in columns is a key part of the value of data frames, and why I think list-columns are such a good idea. In the course of working with these countries, we are going to have lots of lists where we have one element per country. So why not store them all together in one data frame?

In other words, instead of creating a new object in the global environment, we’re going to create a new variable in the by_country data frame. That’s a job for dplyr::mutate():

by_country <- by_country %>% 
  mutate(model = map(data, country_model))
by_country
#> # A tibble: 142 × 4
#> # Groups:   country, continent [142]
#>    country     continent data              model 
#>    <fct>       <fct>     <list>            <list>
#>  1 Afghanistan Asia      <tibble [12 × 4]> <lm>  
#>  2 Albania     Europe    <tibble [12 × 4]> <lm>  
#>  3 Algeria     Africa    <tibble [12 × 4]> <lm>  
#>  4 Angola      Africa    <tibble [12 × 4]> <lm>  
#>  5 Argentina   Americas  <tibble [12 × 4]> <lm>  
#>  6 Australia   Oceania   <tibble [12 × 4]> <lm>  
#>  7 Austria     Europe    <tibble [12 × 4]> <lm>  
#>  8 Bahrain     Asia      <tibble [12 × 4]> <lm>  
#>  9 Bangladesh  Asia      <tibble [12 × 4]> <lm>  
#> 10 Belgium     Europe    <tibble [12 × 4]> <lm>  
#> # … with 132 more rows

This has a big advantage: because all the related objects are stored together, you don’t need to manually keep them in sync when you filter or arrange. The semantics of the data frame takes care of that for you:

by_country %>% 
  filter(continent == "Europe")
#> # A tibble: 30 × 4
#> # Groups:   country, continent [30]
#>    country                continent data              model 
#>    <fct>                  <fct>     <list>            <list>
#>  1 Albania                Europe    <tibble [12 × 4]> <lm>  
#>  2 Austria                Europe    <tibble [12 × 4]> <lm>  
#>  3 Belgium                Europe    <tibble [12 × 4]> <lm>  
#>  4 Bosnia and Herzegovina Europe    <tibble [12 × 4]> <lm>  
#>  5 Bulgaria               Europe    <tibble [12 × 4]> <lm>  
#>  6 Croatia                Europe    <tibble [12 × 4]> <lm>  
#>  7 Czech Republic         Europe    <tibble [12 × 4]> <lm>  
#>  8 Denmark                Europe    <tibble [12 × 4]> <lm>  
#>  9 Finland                Europe    <tibble [12 × 4]> <lm>  
#> 10 France                 Europe    <tibble [12 × 4]> <lm>  
#> # … with 20 more rows
by_country %>% 
  arrange(continent, country)
#> # A tibble: 142 × 4
#> # Groups:   country, continent [142]
#>    country                  continent data              model 
#>    <fct>                    <fct>     <list>            <list>
#>  1 Algeria                  Africa    <tibble [12 × 4]> <lm>  
#>  2 Angola                   Africa    <tibble [12 × 4]> <lm>  
#>  3 Benin                    Africa    <tibble [12 × 4]> <lm>  
#>  4 Botswana                 Africa    <tibble [12 × 4]> <lm>  
#>  5 Burkina Faso             Africa    <tibble [12 × 4]> <lm>  
#>  6 Burundi                  Africa    <tibble [12 × 4]> <lm>  
#>  7 Cameroon                 Africa    <tibble [12 × 4]> <lm>  
#>  8 Central African Republic Africa    <tibble [12 × 4]> <lm>  
#>  9 Chad                     Africa    <tibble [12 × 4]> <lm>  
#> 10 Comoros                  Africa    <tibble [12 × 4]> <lm>  
#> # … with 132 more rows

If your list of data frames and list of models were separate objects, you have to remember that whenever you re-order or subset one vector, you need to re-order or subset all the others in order to keep them in sync. If you forget, your code will continue to work, but it will give the wrong answer!

Unnesting

Previously we computed the residuals of a single model with a single dataset. Now we have 142 data frames and 142 models. To compute the residuals, we need to call augment() with each model pair:

by_country <- by_country %>% 
  mutate(
    results = map(model, augment)
  )
by_country
#> # A tibble: 142 × 5
#> # Groups:   country, continent [142]
#>    country     continent data              model  results          
#>    <fct>       <fct>     <list>            <list> <list>           
#>  1 Afghanistan Asia      <tibble [12 × 4]> <lm>   <tibble [12 × 8]>
#>  2 Albania     Europe    <tibble [12 × 4]> <lm>   <tibble [12 × 8]>
#>  3 Algeria     Africa    <tibble [12 × 4]> <lm>   <tibble [12 × 8]>
#>  4 Angola      Africa    <tibble [12 × 4]> <lm>   <tibble [12 × 8]>
#>  5 Argentina   Americas  <tibble [12 × 4]> <lm>   <tibble [12 × 8]>
#>  6 Australia   Oceania   <tibble [12 × 4]> <lm>   <tibble [12 × 8]>
#>  7 Austria     Europe    <tibble [12 × 4]> <lm>   <tibble [12 × 8]>
#>  8 Bahrain     Asia      <tibble [12 × 4]> <lm>   <tibble [12 × 8]>
#>  9 Bangladesh  Asia      <tibble [12 × 4]> <lm>   <tibble [12 × 8]>
#> 10 Belgium     Europe    <tibble [12 × 4]> <lm>   <tibble [12 × 8]>
#> # … with 132 more rows

But how can you plot a list of data frames? Instead of struggling to answer that question, let’s turn the list of data frames back into a regular data frame. Previously we used nest() to turn a regular data frame into an nested data frame, and now we do the opposite with unnest():

resids <- unnest(by_country, results)
resids
#> # A tibble: 1,704 × 12
#> # Groups:   country, continent [142]
#>    country    conti…¹ data     model lifeExp  year .fitted  .resid   .hat .sigma
#>    <fct>      <fct>   <list>   <lis>   <dbl> <int>   <dbl>   <dbl>  <dbl>  <dbl>
#>  1 Afghanist… Asia    <tibble> <lm>     28.8  1952    29.9 -1.11   0.295    1.21
#>  2 Afghanist… Asia    <tibble> <lm>     30.3  1957    31.3 -0.952  0.225    1.24
#>  3 Afghanist… Asia    <tibble> <lm>     32.0  1962    32.7 -0.664  0.169    1.27
#>  4 Afghanist… Asia    <tibble> <lm>     34.0  1967    34.0 -0.0172 0.127    1.29
#>  5 Afghanist… Asia    <tibble> <lm>     36.1  1972    35.4  0.674  0.0991   1.27
#>  6 Afghanist… Asia    <tibble> <lm>     38.4  1977    36.8  1.65   0.0851   1.15
#>  7 Afghanist… Asia    <tibble> <lm>     39.9  1982    38.2  1.69   0.0851   1.15
#>  8 Afghanist… Asia    <tibble> <lm>     40.8  1987    39.5  1.28   0.0991   1.21
#>  9 Afghanist… Asia    <tibble> <lm>     41.7  1992    40.9  0.754  0.127    1.26
#> 10 Afghanist… Asia    <tibble> <lm>     41.8  1997    42.3 -0.534  0.169    1.27
#> # … with 1,694 more rows, 2 more variables: .cooksd <dbl>, .std.resid <dbl>,
#> #   and abbreviated variable name ¹​continent
…
broom::glance(nz_mod)
#> # A tibble: 1 × 12
#>   r.squ…¹ adj.r…² sigma stati…³ p.value    df logLik   AIC   BIC devia…⁴ df.re…⁵
#>     <dbl>   <dbl> <dbl>   <dbl>   <dbl> <dbl>  <dbl> <dbl> <dbl>   <dbl>   <int>
#> 1   0.954   0.949 0.804    205. 5.41e-8     1  -13.3  32.6  34.1    6.47      10
#> # … with 1 more variable: nobs <int>, and abbreviated variable names
#> #   ¹​r.squared, ²​adj.r.squared, ³​statistic, ⁴​deviance, ⁵​df.residual

We can use mutate() and unnest() to create a data frame with a row for each country:

by_country %>% 
  mutate(glance = map(model, broom::glance)) %>% 
  unnest(glance)
#> # A tibble: 142 × 17
#> # Groups:   country, continent [142]
#>    country     continent data     model  results  r.squa…¹ adj.r…² sigma stati…³
#>    <fct>       <fct>     <list>   <list> <list>      <dbl>   <dbl> <dbl>   <dbl>
#>  1 Afghanistan Asia      <tibble> <lm>   <tibble>    0.948   0.942 1.22    181. 
#>  2 Albania     Europe    <tibble> <lm>   <tibble>    0.911   0.902 1.98    102. 
#>  3 Algeria     Africa    <tibble> <lm>   <tibble>    0.985   0.984 1.32    662. 
#>  4 Angola      Africa    <tibble> <lm>   <tibble>    0.888   0.877 1.41     79.1
#>  5 Argentina   Americas  <tibble> <lm>   <tibble>    0.996   0.995 0.292  2246. 
#>  6 Australia   Oceania   <tibble> <lm>   <tibble>    0.980   0.978 0.621   481. 
#>  7 Austria     Europe    <tibble> <lm>   <tibble>    0.992   0.991 0.407  1261. 
#>  8 Bahrain     Asia      <tibble> <lm>   <tibble>    0.967   0.963 1.64    291. 
#>  9 Bangladesh  Asia      <tibble> <lm>   <tibble>    0.989   0.988 0.977   930. 
#> 10 Belgium     Europe    <tibble> <lm>   <tibble>    0.995   0.994 0.293  1822. 
#> # … with 132 more rows, 8 more variables: p.value <dbl>, df <dbl>,
#> #   logLik <dbl>, AIC <dbl>, BIC <dbl>, deviance <dbl>, df.residual <int>,
#> #   nobs <int>, and abbreviated variable names ¹​r.squared, ²​adj.r.squared,
#> #   ³​statistic

This isn’t quite the output we want, because it still includes all the list columns. This is default behaviour when unnest() works on single row data frames. To suppress these columns we use select():

glance <- by_country %>% 
  mutate(glance = map(model, broom::glance)) %>% 
  unnest(glance) %>% 
  select(-data, -model, -results)
glance
#> # A tibble: 142 × 14
#> # Groups:   country, continent [142]
#>    country     conti…¹ r.squ…² adj.r…³ sigma stati…⁴  p.value    df logLik   AIC
#>    <fct>       <fct>     <dbl>   <dbl> <dbl>   <dbl>    <dbl> <dbl>  <dbl> <dbl>
#>  1 Afghanistan Asia      0.948   0.942 1.22    181.  9.84e- 8     1 -18.3  42.7 
#>  2 Albania     Europe    0.911   0.902 1.98    102.  1.46e- 6     1 -24.1  54.3 
#>  3 Algeria     Africa    0.985   0.984 1.32    662.  1.81e-10     1 -19.3  44.6 
#>  4 Angola      Africa    0.888   0.877 1.41     79.1 4.59e- 6     1 -20.0  46.1 
#>  5 Argentina   Americ…   0.996   0.995 0.292  2246.  4.22e-13     1  -1.17  8.35
#>  6 Australia   Oceania   0.980   0.978 0.621   481.  8.67e-10     1 -10.2  26.4 
#>  7 Austria     Europe    0.992   0.991 0.407  1261.  7.44e-12     1  -5.16 16.3 
#>  8 Bahrain     Asia      0.967   0.963 1.64    291.  1.02e- 8     1 -21.9  49.7 
#>  9 Bangladesh  Asia      0.989   0.988 0.977   930.  3.37e-11     1 -15.7  37.3 
#> 10 Belgium     Europe    0.995   0.994 0.293  1822.  1.20e-12     1  -1.20  8.40
#> # … with 132 more rows, 4 more variables: BIC <dbl>, deviance <dbl>,
#> #   df.residual <int>, nobs <int>, and abbreviated variable names ¹​continent,
#> #   ²​r.squared, ³​adj.r.squared, ⁴​statistic

(Pay attention to the variables that aren’t printed: there’s a lot of useful stuff there.)

With this data frame in hand, we can start to look for models that don’t fit well:

glance %>% 
  arrange(r.squared)
#> # A tibble: 142 × 14
#> # Groups:   country, continent [142]
#>    country     conti…¹ r.squ…² adj.r.…³ sigma stati…⁴ p.value    df logLik   AIC
#>    <fct>       <fct>     <dbl>    <dbl> <dbl>   <dbl>   <dbl> <dbl>  <dbl> <dbl>
#>  1 Rwanda      Africa   0.0172 -0.0811   6.56   0.175  0.685      1  -38.5  83.0
#>  2 Botswana    Africa   0.0340 -0.0626   6.11   0.352  0.566      1  -37.7  81.3
#>  3 Zimbabwe    Africa   0.0562 -0.0381   7.21   0.596  0.458      1  -39.6  85.3
#>  4 Zambia      Africa   0.0598 -0.0342   4.53   0.636  0.444      1  -34.1  74.1
#>  5 Swaziland   Africa   0.0682 -0.0250   6.64   0.732  0.412      1  -38.7  83.3
#>  6 Lesotho     Africa   0.0849 -0.00666  5.93   0.927  0.358      1  -37.3  80.6
#>  7 Cote d'Ivo… Africa   0.283   0.212    3.93   3.95   0.0748     1  -32.3  70.7
#>  8 South Afri… Africa   0.312   0.244    4.74   4.54   0.0588     1  -34.6  75.2
#>  9 Uganda      Africa   0.342   0.276    3.19   5.20   0.0457     1  -29.8  65.7
#> 10 Congo, Dem… Africa   0.348   0.283    2.43   5.34   0.0434     1  -26.6  59.2
#> # … with 132 more rows, 4 more variables: BIC <dbl>, deviance <dbl>,
#> #   df.residual <int>, nobs <int>, and abbreviated variable names ¹​continent,
#> #   ²​r.squared, ³​adj.r.squared, ⁴​statistic
…
Alternatively, you might create them from a named list, using tibble::enframe().

Generally, when creating list-columns, you should make sure they’re homogeneous: each element should contain the same type of thing. There are no checks to make sure this is true, but if you use purrr and remember what you’ve learned about type-stable functions, you should find it happens naturally.

With nesting

nest() creates a nested data frame, which is a data frame with a list-column of data frames. In a nested data frame each row is a meta-observation: the other columns give variables that define the observation (like country and continent above), and the list-column of data frames gives the individual observations that make up the meta-observation.

There are two ways to use nest(). So far you’ve seen how to use it with a grouped data frame. When applied to a grouped data frame, nest() keeps the grouping columns as is, and bundles everything else into the list-column:

gapminder %>% 
  group_by(country, continent) %>% 
  nest()
#> # A tibble: 142 × 3
#> # Groups:   country, continent [142]
#>    country     continent data             
#>    <fct>       <fct>     <list>           
#>  1 Afghanistan Asia      <tibble [12 × 4]>
#>  2 Albania     Europe    <tibble [12 × 4]>
#>  3 Algeria     Africa    <tibble [12 × 4]>
#>  4 Angola      Africa    <tibble [12 × 4]>
#>  5 Argentina   Americas  <tibble [12 × 4]>
#>  6 Australia   Oceania   <tibble [12 × 4]>
#>  7 Austria     Europe    <tibble [12 × 4]>
#>  8 Bahrain     Asia      <tibble [12 × 4]>
#>  9 Bangladesh  Asia      <tibble [12 × 4]>
#> 10 Belgium     Europe    <tibble [12 × 4]>
#> # … with 132 more rows

You can also use it on an ungrouped data frame, specifying which columns you want to nest:

gapminder %>% 
  nest(data = c(year:gdpPercap))
#> # A tibble: 142 × 3
#>    country     continent data             
#>    <fct>       <fct>     <list>           
#>  1 Afghanistan Asia      <tibble [12 × 4]>
#>  2 Albania     Europe    <tibble [12 × 4]>
#>  3 Algeria     Africa    <tibble [12 × 4]>
#>  4 Angola      Africa    <tibble [12 × 4]>
#>  5 Argentina   Americas  <tibble [12 × 4]>
#>  6 Australia   Oceania   <tibble [12 × 4]>
#>  7 Austria     Europe    <tibble [12 × 4]>
#>  8 Bahrain     Asia      <tibble [12 × 4]>
#>  9 Bangladesh  Asia      <tibble [12 × 4]>
#> 10 Belgium     Europe    <tibble [12 × 4]>
#> # … with 132 more rows
…
