Monitoring model performance over time using slider – tidymodels
…
sim_data
#> # A tibble: 6,000 × 4
#>    date            x1      x2 outcome
#>    <date>       <dbl>   <dbl> <fct>  
#>  1 2022-01-01  0.602  -0.727  yes    
#>  2 2022-01-01  0.480   1.31   yes    
#>  3 2022-01-01  0.215  -0.510  yes    
#>  4 2022-01-01 -2.54   -1.34   no     
#>  5 2022-01-01  0.0464  0.191  no     
#>  6 2022-01-01 -0.0509  0.601  no     
#>  7 2022-01-01 -1.81    0.130  no     
#>  8 2022-01-01  0.788   0.0570 no     
#>  9 2022-01-01 -1.48   -0.746  no     
#> 10 2022-01-01 -0.348  -0.733  yes    
#> # ℹ 5,990 more rows
…
