tidymodels - An introduction to calibration with tidymodels
…
These metric estimates are very consistent with the resampled performance estimates.

We can then use our cell_cal object with the cal_apply() function:

cell_test_cal_pred <-
  cell_test_pred %>%
  cal_apply(cell_cal)
cell_test_cal_pred %>% dplyr::select(class, starts_with(".pred_"))
#> # A tibble: 505 × 4
#>    class .pred_class .pred_PS .pred_WS
#>    <fct> <fct>          <dbl>    <dbl>
#>  1 PS    PS            0.882    0.118 
#>  2 WS    WS            0.215    0.785 
#>  3 WS    WS            0.0768   0.923 
#>  4 PS    PS            0.833    0.167 
#>  5 PS    PS            0.947    0.0534
#>  6 WS    WS            0.210    0.790 
#>  7 PS    PS            0.852    0.148 
#>  8 PS    PS            0.724    0.276 
#>  9 WS    WS            0.341    0.659 
#> 10 WS    PS            0.602    0.398 
#> # ℹ 495 more rows
…
