Create your own recipe step function – tidymodels
…
When the recipe has been prepped, those data are in the list ref_dist. A small function can be used to reformat that data into a tibble. It is customary to return the main values as value:

format_pctl <- function(x) {
 tibble::tibble(
 value = unname(x),
 percentile = as.numeric(gsub("%$", "", names(x)))
 )
}

# For example:
pctl_step_object <- rec_obj$steps[[1]]
pctl_step_object
#> • Percentile transformation on: hydrogen and oxygen, ... | Trained
format_pctl(pctl_step_object$ref_dist[["hydrogen"]])
#> # A tibble: 87 × 2
#>    value percentile
#>    <dbl>      <dbl>
#>  1 0.03           0
#>  2 0.934          1
#>  3 1.60           2
#>  4 2.07           3
#>  5 2.45           4
#>  6 2.74           5
#>  7 3.15           6
#>  8 3.49           7
#>  9 3.71           8
#> 10 3.99           9
#> # ℹ 77 more rows
…
tidy(rec_obj, number = 1)
#> # A tibble: 274 × 4
#>    term     value percentile id               
#>    <chr>    <dbl>      <dbl> <chr>            
#>  1 hydrogen 0.03           0 percentiles_Bp5vK
#>  2 hydrogen 0.934          1 percentiles_Bp5vK
#>  3 hydrogen 1.60           2 percentiles_Bp5vK
#>  4 hydrogen 2.07           3 percentiles_Bp5vK
#>  5 hydrogen 2.45           4 percentiles_Bp5vK
#>  6 hydrogen 2.74           5 percentiles_Bp5vK
#>  7 hydrogen 3.15           6 percentiles_Bp5vK
#>  8 hydrogen 3.49           7 percentiles_Bp5vK
#>  9 hydrogen 3.71           8 percentiles_Bp5vK
#> 10 hydrogen 3.99           9 percentiles_Bp5vK
#> # ℹ 264 more rows
…
