Confidence Intervals for Performance Metrics – tidymodels
…
In statistics, the bootstrap is a resampling method that takes a random sample the same size as the original but samples with replacement. This means that, in the bootstrap sample, some rows of data are represented multiple times and others not at all.

There is some theory that shows that if we recompute a statistic a large number of times using the bootstrap, we can understand its sampling distribution and, from that, compute confidence intervals. A good recent reference on this subject by the original inventor of the bootstrap is Computer Age Statistical Inference which is available as a free PDF.

For our application, we’ll take the validation set predictions for each candidate model in the grid, bootstrap them, and then compute confidence intervals using the percentile method. Note that we are not refitting the model; we will be solely relying on the existing out-of-sample predictions from the validation set.

There’s a tidymodels function called int_pctl() for this purpose. It has a method to work with objects produced by the tune package, such as our mars_res object. Let’s compute 90% confidence intervals using 2,000 bootstrap samples:

set.seed(140)
mars_boot <- int_pctl(mars_res, alpha = 0.10)
#> Warning: Too little data to stratify.
#> • Resampling will be unstratified.
mars_boot
#> # A tibble: 98 × 7
#>    num_terms .metric .estimator .lower .estimate .upper .config         
#>        <int> <chr>   <chr>       <dbl>     <dbl>  <dbl> <chr>           
#>  1         2 rmse    bootstrap    6.56      6.79   7.01 pre0_mod01_post0
#>  2         3 rmse    bootstrap    4.73      4.97   5.23 pre0_mod02_post0
#>  3         4 rmse    bootstrap    3.99      4.15   4.31 pre0_mod03_post0
#>  4         5 rmse    bootstrap    3.79      3.95   4.12 pre0_mod04_post0
#>  5         6 rmse    bootstrap    3.53      3.70   3.89 pre0_mod05_post0
#>  6         7 rmse    bootstrap    3.20      3.36   3.54 pre0_mod06_post0
#>  7         8 rmse    bootstrap    3.20      3.36   3.54 pre0_mod07_post0
#>  8         9 rmse    bootstrap    3.03      3.19   3.37 pre0_mod08_post0
#>  9        10 rmse    bootstrap    3.01      3.18   3.37 pre0_mod09_post0
#> 10        11 rmse    bootstrap    2.82      2.99   3.17 pre0_mod10_post0
#> # ℹ 88 more rows
…
