…
In statistics, the bootstrap is a resampling method that takes a random sample the same size as the original but samples [with replacement](https://en.wikipedia.org/wiki/Sampling_(statistics)#Replacement_of_selected_units). This means that, in the bootstrap sample, some rows of data are represented multiple times and others not at all. 

There is [some theory](https://scholar.google.com/scholar?hl=en&as_sdt=0%2C7&q=%22bootstrap+confidence+intervals%22&btnG=) that shows that if we recompute a statistic a large number of times using the bootstrap, we can understand its sampling distribution and, from that, compute confidence intervals. A good recent reference on this subject by the original inventor of the bootstrap is [_Computer Age Statistical Inference_](https://hastie.su.domains/CASI/) which is available as a free PDF.

For our application, we'll take the validation set predictions for each candidate model in the grid, bootstrap them, and then compute confidence intervals using the percentile method. Note that we are not refitting the model; we will be solely relying on the existing out-of-sample predictions from the validation set. 

There's a tidymodels function called `int_pctl()` for this purpose. It has a method to work with objects produced by the tune package, such as our `mars_res` object. Let's compute 90% confidence intervals using 2,000 bootstrap samples:

::: {.cell layout-align="center"}

```{.r .cell-code}
set.seed(140)
mars_boot <- int_pctl(mars_res, alpha = 0.10)
mars_boot
#> # A tibble: 98 × 7
#>    .metric .estimator .lower .estimate .upper .config               num_terms
#>    <chr>   <chr>       <dbl>     <dbl>  <dbl> <chr>                     <int>
#>  1 rmse    bootstrap  6.57      6.79   7.02   Preprocessor1_Model01         2
#>  2 rsq     bootstrap  0.0462    0.0599 0.0746 Preprocessor1_Model01         2
#>  3 rmse    bootstrap  4.71      4.96   5.22   Preprocessor1_Model02         3
#>  4 rsq     bootstrap  0.468     0.497  0.527  Preprocessor1_Model02         3
#>  5 rmse    bootstrap  3.99      4.15   4.32   Preprocessor1_Model03         4
#>  6 rsq     bootstrap  0.624     0.649  0.674  Preprocessor1_Model03         4
#>  7 rmse    bootstrap  3.78      3.94   4.12   Preprocessor1_Model04         5
#>  8 rsq     bootstrap  0.657     0.683  0.706  Preprocessor1_Model04         5
#>  9 rmse    bootstrap  3.54      3.70   3.88   Preprocessor1_Model05         6
#> 10 rsq     bootstrap  0.699     0.721  0.741  Preprocessor1_Model05         6
#> # ℹ 88 more rows
```
…
