Tuning text models – tidymodels
…
Text as data

The text data we’ll use in this article are from Amazon:

This dataset consists of reviews of fine foods from amazon. The data span a period of more than 10 years, including all ~500,000 reviews up to October 2012. Reviews include product and user information, ratings, and a plaintext review.

This article uses a small subset of the total reviews available at the original source. We sampled a single review from 5,000 random products and allocated 80% of these data to the training set, with the remaining 1,000 reviews held out for the test set.

There is a column for the product, a column for the text of the review, and a factor column for the outcome variable. The outcome is whether the reviewer gave the product a five-star rating or not.

library(tidymodels)

data("small_fine_foods")
training_data
#> # A tibble: 4,000 × 3
#>    product    review                                                       score
#>    <chr>      <chr>                                                        <fct>
#>  1 B000J0LSBG "this stuff is  not stuffing  its  not good at all  save yo… other
#>  2 B000EYLDYE "I absolutely LOVE this dried fruit.  LOVE IT.  Whenever I … great
#>  3 B0026LIO9A "GREAT DEAL, CONVENIENT TOO.  Much cheaper than WalMart and… great
#>  4 B00473P8SK "Great flavor, we go through a ton of this sauce! I discove… great
#>  5 B001SAWTNM "This is excellent salsa/hot sauce, but you can get it for … great
#>  6 B000FAG90U "Again, this is the best dogfood out there.  One suggestion… great
#>  7 B006BXTCEK "The box I received was filled with teas, hot chocolates, a… other
#>  8 B002GWH5OY "This is delicious coffee which compares favorably with muc… great
#>  9 B003R0MFYY "Don't let these little tiny cans fool you.  They pack a lo… great
#> 10 B001EO5ZXI "One of the nicest, smoothest cup of chai I've made. Nice m… great
#> # ℹ 3,990 more rows
…
Grid search

Let’s begin our tuning with grid search and a regular grid. For glmnet models, evaluating penalty values is fairly cheap because of the use of the “submodel-trick”. The grid will use 20 penalty values, 5 mixture values, and 3 values for the number of hash features.

five_star_grid <- 
  crossing(
    penalty = 10^seq(-3, 0, length = 20),
    mixture = c(0.01, 0.25, 0.50, 0.75, 1),
    num_terms = 2^c(8, 10, 12)
  )
five_star_grid
#> # A tibble: 300 × 3
#>    penalty mixture num_terms
#>      <dbl>   <dbl>     <dbl>
#>  1   0.001    0.01       256
#>  2   0.001    0.01      1024
#>  3   0.001    0.01      4096
#>  4   0.001    0.25       256
#>  5   0.001    0.25      1024
#>  6   0.001    0.25      4096
#>  7   0.001    0.5        256
#>  8   0.001    0.5       1024
#>  9   0.001    0.5       4096
#> 10   0.001    0.75       256
#> # ℹ 290 more rows
…
What do the results look like? Let’s get the resampling estimates of the area under the ROC curve for each tuning parameter:

grid_roc <- 
  collect_metrics(five_star_glmnet) %>% 
  arrange(desc(mean))
grid_roc
#> # A tibble: 300 × 9
#>    penalty mixture num_terms .metric .estimator  mean     n std_err .config     
#>      <dbl>   <dbl>     <dbl> <chr>   <chr>      <dbl> <int>   <dbl> <chr>       
#>  1 0.483      0.01      4096 roc_auc binary     0.800     5 0.00580 pre3_mod086…
#>  2 0.695      0.01      4096 roc_auc binary     0.799     5 0.00650 pre3_mod091…
#>  3 0.336      0.01      4096 roc_auc binary     0.798     5 0.00490 pre3_mod081…
#>  4 0.0264     0.25      4096 roc_auc binary     0.796     5 0.00221 pre3_mod047…
#>  5 0.234      0.01      4096 roc_auc binary     0.795     5 0.00459 pre3_mod076…
#>  6 0.0379     0.25      4096 roc_auc binary     0.794     5 0.00363 pre3_mod052…
#>  7 0.0546     0.25      4096 roc_auc binary     0.794     5 0.00621 pre3_mod057…
#>  8 0.0127     0.5       4096 roc_auc binary     0.794     5 0.00209 pre3_mod038…
#>  9 0.0183     0.5       4096 roc_auc binary     0.793     5 0.00316 pre3_mod043…
#> 10 0.00886    0.75      4096 roc_auc binary     0.793     5 0.00209 pre3_mod034…
#> # ℹ 290 more rows
…
five_star_search
#> # Tuning results
#> # 5-fold cross-validation 
#> # A tibble: 55 × 5
#>    splits             id    .metrics         .notes           .iter
#>    <list>             <chr> <list>           <list>           <int>
#>  1 <split [3200/800]> Fold1 <tibble [5 × 7]> <tibble [0 × 4]>     0
#>  2 <split [3200/800]> Fold2 <tibble [5 × 7]> <tibble [0 × 4]>     0
#>  3 <split [3200/800]> Fold3 <tibble [5 × 7]> <tibble [0 × 4]>     0
#>  4 <split [3200/800]> Fold4 <tibble [5 × 7]> <tibble [0 × 4]>     0
#>  5 <split [3200/800]> Fold5 <tibble [5 × 7]> <tibble [0 × 4]>     0
#>  6 <split [3200/800]> Fold1 <tibble [1 × 7]> <tibble [0 × 4]>     1
#>  7 <split [3200/800]> Fold2 <tibble [1 × 7]> <tibble [0 × 4]>     1
#>  8 <split [3200/800]> Fold3 <tibble [1 × 7]> <tibble [0 × 4]>     1
#>  9 <split [3200/800]> Fold4 <tibble [1 × 7]> <tibble [0 × 4]>     1
#> 10 <split [3200/800]> Fold5 <tibble [1 × 7]> <tibble [0 × 4]>     1
#> # ℹ 45 more rows
…
Extracted results

Let’s return to the grid search results and examine the results of our extract function. For each fitted model, a tibble was saved that contains the relationship between the number of predictors and the penalty value. Let’s look at these results for the best model:

params <- select_best(five_star_glmnet, metric = "roc_auc")
params
#> # A tibble: 1 × 4
#>   penalty mixture num_terms .config          
#>     <dbl>   <dbl>     <dbl> <chr>            
#> 1   0.483    0.01      4096 pre3_mod086_post0

Recall that we saved the glmnet results in a tibble. The column five_star_glmnet$.extracts is a list of tibbles. As an example, the first element of the list is:

five_star_glmnet$.extracts[[1]]
#> # A tibble: 300 × 5
#>    penalty mixture num_terms .extracts          .config          
#>      <dbl>   <dbl>     <dbl> <list>             <chr>            
#>  1 0.001      0.01       256 <tibble [100 × 2]> pre1_mod001_post0
#>  2 0.001      0.25       256 <tibble [91 × 2]>  pre1_mod002_post0
#>  3 0.001      0.5        256 <tibble [74 × 2]>  pre1_mod003_post0
#>  4 0.001      0.75       256 <tibble [69 × 2]>  pre1_mod004_post0
#>  5 0.001      1          256 <tibble [68 × 2]>  pre1_mod005_post0
#>  6 0.00144    0.01       256 <tibble [100 × 2]> pre1_mod006_post0
#>  7 0.00144    0.25       256 <tibble [91 × 2]>  pre1_mod007_post0
#>  8 0.00144    0.5        256 <tibble [74 × 2]>  pre1_mod008_post0
#>  9 0.00144    0.75       256 <tibble [69 × 2]>  pre1_mod009_post0
#> 10 0.00144    1          256 <tibble [68 × 2]>  pre1_mod010_post0
#> # ℹ 290 more rows

More nested tibbles! Let’s unnest() the five_star_glmnet$.extracts column:

library(tidyr)
extracted <- 
  five_star_glmnet %>% 
  dplyr::select(id, .extracts) %>% 
  unnest(cols = .extracts)
extracted
#> # A tibble: 1,500 × 6
#>    id    penalty mixture num_terms .extracts          .config          
#>    <chr>   <dbl>   <dbl>     <dbl> <list>             <chr>            
#>  1 Fold1 0.001      0.01       256 <tibble [100 × 2]> pre1_mod001_post0
#>  2 Fold1 0.001      0.25       256 <tibble [91 × 2]>  pre1_mod002_post0
#>  3 Fold1 0.001      0.5        256 <tibble [74 × 2]>  pre1_mod003_post0
#>  4 Fold1 0.001      0.75       256 <tibble [69 × 2]>  pre1_mod004_post0
#>  5 Fold1 0.001      1          256 <tibble [68 × 2]>  pre1_mod005_post0
#>  6 Fold1 0.00144    0.01       256 <tibble [100 × 2]> pre1_mod006_post0
#>  7 Fold1 0.00144    0.25       256 <tibble [91 × 2]>  pre1_mod007_post0
#>  8 Fold1 0.00144    0.5        256 <tibble [74 × 2]>  pre1_mod008_post0
#>  9 Fold1 0.00144    0.75       256 <tibble [69 × 2]>  pre1_mod009_post0
#> 10 Fold1 0.00144    1          256 <tibble [68 × 2]>  pre1_mod010_post0
#> # ℹ 1,490 more rows

One thing to realize here is that tune_grid() may not fit all of the models that are evaluated. In this case, for each value of mixture and num_terms, the model is fit over all penalty values (this is a feature of this particular model and is not generally true for other engines). To select the best parameter set, we can exclude the penalty column in extracted:

extracted <- 
  extracted %>% 
  dplyr::select(-penalty) %>% 
  inner_join(params, by = c("num_terms", "mixture")) %>% 
  # Now remove it from the final results
  dplyr::select(-penalty)
extracted
#> # A tibble: 100 × 6
#>    id    mixture num_terms .extracts          .config.x         .config.y       
#>    <chr>   <dbl>     <dbl> <list>             <chr>             <chr>           
#>  1 Fold1    0.01      4096 <tibble [100 × 2]> pre3_mod001_post0 pre3_mod086_pos…
#>  2 Fold1    0.01      4096 <tibble [100 × 2]> pre3_mod006_post0 pre3_mod086_pos…
#>  3 Fold1    0.01      4096 <tibble [100 × 2]> pre3_mod011_post0 pre3_mod086_pos…
#>  4 Fold1    0.01      4096 <tibble [100 × 2]> pre3_mod016_post0 pre3_mod086_pos…
#>  5 Fold1    0.01      4096 <tibble [100 × 2]> pre3_mod021_post0 pre3_mod086_pos…
#>  6 Fold1    0.01      4096 <tibble [100 × 2]> pre3_mod026_post0 pre3_mod086_pos…
#>  7 Fold1    0.01      4096 <tibble [100 × 2]> pre3_mod031_post0 pre3_mod086_pos…
#>  8 Fold1    0.01      4096 <tibble [100 × 2]> pre3_mod036_post0 pre3_mod086_pos…
#>  9 Fold1    0.01      4096 <tibble [100 × 2]> pre3_mod041_post0 pre3_mod086_pos…
#> 10 Fold1    0.01      4096 <tibble [100 × 2]> pre3_mod046_post0 pre3_mod086_pos…
#> # ℹ 90 more rows

Now we can get at the results that we want using another unnest():

extracted <- 
  extracted %>% 
  unnest(col = .extracts) # <- these contain a `penalty` column
extracted
#> # A tibble: 10,000 × 7
#>    id    mixture num_terms penalty num_vars .config.x         .config.y        
#>    <chr>   <dbl>     <dbl>   <dbl>    <int> <chr>             <chr>            
#>  1 Fold1    0.01      4096    8.80        0 pre3_mod001_post0 pre3_mod086_post0
#>  2 Fold1    0.01      4096    8.40        2 pre3_mod001_post0 pre3_mod086_post0
#>  3 Fold1    0.01      4096    8.02        2 pre3_mod001_post0 pre3_mod086_post0
#>  4 Fold1    0.01      4096    7.66        2 pre3_mod001_post0 pre3_mod086_post0
#>  5 Fold1    0.01      4096    7.31        2 pre3_mod001_post0 pre3_mod086_post0
#>  6 Fold1    0.01      4096    6.98        3 pre3_mod001_post0 pre3_mod086_post0
#>  7 Fold1    0.01      4096    6.66        3 pre3_mod001_post0 pre3_mod086_post0
#>  8 Fold1    0.01      4096    6.36        6 pre3_mod001_post0 pre3_mod086_post0
#>  9 Fold1    0.01      4096    6.07        6 pre3_mod001_post0 pre3_mod086_post0
#> 10 Fold1    0.01      4096    5.79        7 pre3_mod001_post0 pre3_mod086_post0
#> # ℹ 9,990 more rows
…
