…
> This dataset consists of reviews of fine foods from amazon. The data span a period of more than 10 years, including all ~500,000 reviews up to October 2012. Reviews include product and user information, ratings, and a plaintext review.

This article uses a small subset of the total reviews [available at the original source](https://snap.stanford.edu/data/web-FineFoods.html). We sampled a single review from 5,000 random products and allocated 80% of these data to the training set, with the remaining 1,000 reviews held out for the test set.   

There is a column for the product, a column for the text of the review, and a factor column for the outcome variable. The outcome is whether the reviewer gave the product a five-star rating or not.

::: {.cell layout-align="center"}

```{.r .cell-code}
library(tidymodels)

data("small_fine_foods")
training_data
#> # A tibble: 4,000 × 3
#>    product    review                                                       score
#>    <chr>      <chr>                                                        <fct>
#>  1 B000J0LSBG "this stuff is  not stuffing  its  not good at all  save yo… other
#>  2 B000EYLDYE "I absolutely LOVE this dried fruit.  LOVE IT.  Whenever I … great
#>  3 B0026LIO9A "GREAT DEAL, CONVENIENT TOO.  Much cheaper than WalMart and… great
#>  4 B00473P8SK "Great flavor, we go through a ton of this sauce! I discove… great
#>  5 B001SAWTNM "This is excellent salsa/hot sauce, but you can get it for … great
#>  6 B000FAG90U "Again, this is the best dogfood out there.  One suggestion… great
#>  7 B006BXTCEK "The box I received was filled with teas, hot chocolates, a… other
#>  8 B002GWH5OY "This is delicious coffee which compares favorably with muc… great
#>  9 B003R0MFYY "Don't let these little tiny cans fool you.  They pack a lo… great
#> 10 B001EO5ZXI "One of the nicest, smoothest cup of chai I've made. Nice m… great
#> # ℹ 3,990 more rows
```
…
## Grid search

Let's begin our tuning with [grid search](https://www.tidymodels.org/learn/work/tune-svm/) and a regular grid. For glmnet models, evaluating penalty values is fairly cheap because of the use of the ["submodel-trick"](https://tune.tidymodels.org/articles/extras/optimizations.html#sub-model-speed-ups-1). The grid will use 20 penalty values, 5 mixture values, and 3 values for the number of hash features.  

::: {.cell layout-align="center"}

```{.r .cell-code}
five_star_grid <- 
  crossing(
    penalty = 10^seq(-3, 0, length = 20),
    mixture = c(0.01, 0.25, 0.50, 0.75, 1),
    num_terms = 2^c(8, 10, 12)
  )
five_star_grid
#> # A tibble: 300 × 3
#>    penalty mixture num_terms
#>      <dbl>   <dbl>     <dbl>
#>  1   0.001    0.01       256
#>  2   0.001    0.01      1024
#>  3   0.001    0.01      4096
#>  4   0.001    0.25       256
#>  5   0.001    0.25      1024
#>  6   0.001    0.25      4096
#>  7   0.001    0.5        256
#>  8   0.001    0.5       1024
#>  9   0.001    0.5       4096
#> 10   0.001    0.75       256
#> # ℹ 290 more rows
```
…
This took a while to complete! What do the results look like? Let's get the resampling estimates of the area under the ROC curve for each tuning parameter:

::: {.cell layout-align="center"}

```{.r .cell-code}
grid_roc <- 
  collect_metrics(five_star_glmnet) %>% 
  arrange(desc(mean))
grid_roc
#> # A tibble: 300 × 9
#>    penalty mixture num_terms .metric .estimator  mean     n std_err .config     
#>      <dbl>   <dbl>     <dbl> <chr>   <chr>      <dbl> <int>   <dbl> <chr>       
#>  1 0.0379     0.25      4096 roc_auc binary     0.808     5 0.00484 Preprocesso…
#>  2 0.695      0.01      4096 roc_auc binary     0.806     5 0.00683 Preprocesso…
#>  3 0.0183     0.5       4096 roc_auc binary     0.805     5 0.00499 Preprocesso…
#>  4 0.483      0.01      4096 roc_auc binary     0.804     5 0.00691 Preprocesso…
#>  5 0.0546     0.25      4096 roc_auc binary     0.804     5 0.00519 Preprocesso…
#>  6 0.0127     0.75      4096 roc_auc binary     0.804     5 0.00479 Preprocesso…
#>  7 1          0.01      4096 roc_auc binary     0.803     5 0.00639 Preprocesso…
#>  8 0.00886    1         4096 roc_auc binary     0.802     5 0.00518 Preprocesso…
#>  9 0.0264     0.25      4096 roc_auc binary     0.802     5 0.00541 Preprocesso…
#> 10 0.0264     0.5       4096 roc_auc binary     0.802     5 0.00476 Preprocesso…
#> # ℹ 290 more rows
```
…
five_star_search
#> # Tuning results
#> # 5-fold cross-validation 
#> # A tibble: 55 × 5
#>    splits             id    .metrics         .notes           .iter
#>    <list>             <chr> <list>           <list>           <int>
#>  1 <split [3200/800]> Fold1 <tibble [5 × 7]> <tibble [0 × 3]>     0
#>  2 <split [3200/800]> Fold2 <tibble [5 × 7]> <tibble [0 × 3]>     0
#>  3 <split [3200/800]> Fold3 <tibble [5 × 7]> <tibble [0 × 3]>     0
#>  4 <split [3200/800]> Fold4 <tibble [5 × 7]> <tibble [0 × 3]>     0
#>  5 <split [3200/800]> Fold5 <tibble [5 × 7]> <tibble [0 × 3]>     0
#>  6 <split [3200/800]> Fold1 <tibble [1 × 7]> <tibble [0 × 3]>     1
#>  7 <split [3200/800]> Fold2 <tibble [1 × 7]> <tibble [0 × 3]>     1
#>  8 <split [3200/800]> Fold3 <tibble [1 × 7]> <tibble [0 × 3]>     1
#>  9 <split [3200/800]> Fold4 <tibble [1 × 7]> <tibble [0 × 3]>     1
#> 10 <split [3200/800]> Fold5 <tibble [1 × 7]> <tibble [0 × 3]>     1
#> # ℹ 45 more rows
```
…
Recall that we saved the glmnet results in a tibble. The column `five_star_glmnet$.extracts` is a list of tibbles. As an example, the first element of the list is:

::: {.cell layout-align="center"}

```{.r .cell-code}
five_star_glmnet$.extracts[[1]]
#> # A tibble: 300 × 5
#>    num_terms penalty mixture .extracts          .config               
#>        <dbl>   <dbl>   <dbl> <list>             <chr>                 
#>  1       256       1    0.01 <tibble [100 × 2]> Preprocessor1_Model001
#>  2       256       1    0.01 <tibble [100 × 2]> Preprocessor1_Model002
#>  3       256       1    0.01 <tibble [100 × 2]> Preprocessor1_Model003
#>  4       256       1    0.01 <tibble [100 × 2]> Preprocessor1_Model004
#>  5       256       1    0.01 <tibble [100 × 2]> Preprocessor1_Model005
#>  6       256       1    0.01 <tibble [100 × 2]> Preprocessor1_Model006
#>  7       256       1    0.01 <tibble [100 × 2]> Preprocessor1_Model007
#>  8       256       1    0.01 <tibble [100 × 2]> Preprocessor1_Model008
#>  9       256       1    0.01 <tibble [100 × 2]> Preprocessor1_Model009
#> 10       256       1    0.01 <tibble [100 × 2]> Preprocessor1_Model010
#> # ℹ 290 more rows
```
:::

More nested tibbles! Let's `unnest()` the `five_star_glmnet$.extracts` column:

::: {.cell layout-align="center"}

```{.r .cell-code}
library(tidyr)
extracted <- 
  five_star_glmnet %>% 
  dplyr::select(id, .extracts) %>% 
  unnest(cols = .extracts)
extracted
#> # A tibble: 1,500 × 6
#>    id    num_terms penalty mixture .extracts          .config               
#>    <chr>     <dbl>   <dbl>   <dbl> <list>             <chr>                 
#>  1 Fold1       256       1    0.01 <tibble [100 × 2]> Preprocessor1_Model001
#>  2 Fold1       256       1    0.01 <tibble [100 × 2]> Preprocessor1_Model002
#>  3 Fold1       256       1    0.01 <tibble [100 × 2]> Preprocessor1_Model003
#>  4 Fold1       256       1    0.01 <tibble [100 × 2]> Preprocessor1_Model004
#>  5 Fold1       256       1    0.01 <tibble [100 × 2]> Preprocessor1_Model005
#>  6 Fold1       256       1    0.01 <tibble [100 × 2]> Preprocessor1_Model006
#>  7 Fold1       256       1    0.01 <tibble [100 × 2]> Preprocessor1_Model007
#>  8 Fold1       256       1    0.01 <tibble [100 × 2]> Preprocessor1_Model008
#>  9 Fold1       256       1    0.01 <tibble [100 × 2]> Preprocessor1_Model009
#> 10 Fold1       256       1    0.01 <tibble [100 × 2]> Preprocessor1_Model010
#> # ℹ 1,490 more rows
```
:::

One thing to realize here is that `tune_grid()` [may not fit all of the models](https://tune.tidymodels.org/articles/extras/optimizations.html) that are evaluated. In this case, for each value of `mixture` and `num_terms`, the model is fit over _all_ penalty values (this is a feature of this particular model and is not generally true for other engines). To select the best parameter set, we can exclude the `penalty` column in `extracted`:

::: {.cell layout-align="center"}

```{.r .cell-code}
extracted <- 
  extracted %>% 
  dplyr::select(-penalty) %>% 
  inner_join(params, by = c("num_terms", "mixture")) %>% 
  # Now remove it from the final results
  dplyr::select(-penalty)
extracted
#> # A tibble: 100 × 6
#>    id    num_terms mixture .extracts          .config.x              .config.y  
#>    <chr>     <dbl>   <dbl> <list>             <chr>                  <chr>      
#>  1 Fold1      4096    0.25 <tibble [100 × 2]> Preprocessor3_Model021 Preprocess…
#>  2 Fold1      4096    0.25 <tibble [100 × 2]> Preprocessor3_Model022 Preprocess…
#>  3 Fold1      4096    0.25 <tibble [100 × 2]> Preprocessor3_Model023 Preprocess…
#>  4 Fold1      4096    0.25 <tibble [100 × 2]> Preprocessor3_Model024 Preprocess…
#>  5 Fold1      4096    0.25 <tibble [100 × 2]> Preprocessor3_Model025 Preprocess…
#>  6 Fold1      4096    0.25 <tibble [100 × 2]> Preprocessor3_Model026 Preprocess…
#>  7 Fold1      4096    0.25 <tibble [100 × 2]> Preprocessor3_Model027 Preprocess…
#>  8 Fold1      4096    0.25 <tibble [100 × 2]> Preprocessor3_Model028 Preprocess…
#>  9 Fold1      4096    0.25 <tibble [100 × 2]> Preprocessor3_Model029 Preprocess…
#> 10 Fold1      4096    0.25 <tibble [100 × 2]> Preprocessor3_Model030 Preprocess…
#> # ℹ 90 more rows
```
:::

Now we can get at the results that we want using another `unnest()`:

::: {.cell layout-align="center"}

```{.r .cell-code}
extracted <- 
  extracted %>% 
  unnest(col = .extracts) # <- these contain a `penalty` column
extracted
#> # A tibble: 10,000 × 7
#>    id    num_terms mixture penalty num_vars .config.x              .config.y    
#>    <chr>     <dbl>   <dbl>   <dbl>    <int> <chr>                  <chr>        
#>  1 Fold1      4096    0.25   0.352        0 Preprocessor3_Model021 Preprocessor…
#>  2 Fold1      4096    0.25   0.336        2 Preprocessor3_Model021 Preprocessor…
#>  3 Fold1      4096    0.25   0.321        2 Preprocessor3_Model021 Preprocessor…
#>  4 Fold1      4096    0.25   0.306        2 Preprocessor3_Model021 Preprocessor…
#>  5 Fold1      4096    0.25   0.292        2 Preprocessor3_Model021 Preprocessor…
#>  6 Fold1      4096    0.25   0.279        2 Preprocessor3_Model021 Preprocessor…
#>  7 Fold1      4096    0.25   0.266        3 Preprocessor3_Model021 Preprocessor…
#>  8 Fold1      4096    0.25   0.254        5 Preprocessor3_Model021 Preprocessor…
#>  9 Fold1      4096    0.25   0.243        7 Preprocessor3_Model021 Preprocessor…
#> 10 Fold1      4096    0.25   0.232        7 Preprocessor3_Model021 Preprocessor…
#> # ℹ 9,990 more rows
```
…
