…
 - The number of boosted trees in an ensemble with values 1 through 100. 
 - The minimum number of data points required to keep splitting the tree (aka `min_n`) for values of 1, 20, and 40. 

With the same UMAP grid, let’s use is $2 \times 100 \times 3 = 600$ grid points.



::: {.cell layout-align="center"}

```{.r .cell-code}
umap_boost_param <- parameters(neighbors(c(1, 30)), min_n(c(1, 40)), trees(c(1, 100)))
umap_boost_grid <- grid_regular(umap_boost_param, levels = c(2, 3, 100))
umap_boost_grid
#> # A tibble: 600 × 3
#>    neighbors min_n trees
#>        <int> <int> <int>
#>  1         1     1     1
#>  2        30     1     1
#>  3         1    20     1
#>  4        30    20     1
#>  5         1    40     1
#>  6        30    40     1
#>  7         1     1     2
#>  8        30     1     2
#>  9         1    20     2
#> 10        30    20     2
#> # ℹ 590 more rows
```
…
For the first of these, with `min_n` equal to 1 and 100 trees, what is the set of tree sizes that we should predict? 



::: {.cell layout-align="center"}

```{.r .cell-code}
submodel_schedule$second_stage[[1]]$predict_stage[[1]]
#> # A tibble: 100 × 1
#>    trees
#>    <int>
#>  1     1
#>  2     2
#>  3     3
#>  4     4
#>  5     5
#>  6     6
#>  7     7
#>  8     8
#>  9     9
#> 10    10
#> # ℹ 90 more rows
```
…
Once we fit the first combination of parameters for the boosted tree, we start predicting the sequence of submodels...



::: {.cell layout-align="center"}

```{.r .cell-code}
post_proc_schedule$second_stage[[1]]$predict_stage[[1]]
#> # A tibble: 100 × 2
#>    trees         post_stage
#>    <int> <list<tibble[,1]>>
#>  1     1            [6 × 1]
#>  2     2            [6 × 1]
#>  3     3            [6 × 1]
#>  4     4            [6 × 1]
#>  5     5            [6 × 1]
#>  6     6            [6 × 1]
#>  7     7            [6 × 1]
#>  8     8            [6 × 1]
#>  9     9            [6 × 1]
#> 10    10            [6 × 1]
#> # ℹ 90 more rows
```
…
