…
The resulting tibble is a stacked set of rows of the rsample object with an additional column for the iteration number:

::: {.cell layout-align="center"}

```{.r .cell-code}
search_res
#> # Tuning results
#> # 10-fold cross-validation 
#> # A tibble: 510 × 5
#>    splits             id     .metrics         .notes           .iter
#>    <list>             <chr>  <list>           <list>           <int>
#>  1 <split [1362/152]> Fold01 <tibble [5 × 7]> <tibble [0 × 4]>     0
#>  2 <split [1362/152]> Fold02 <tibble [5 × 7]> <tibble [0 × 4]>     0
#>  3 <split [1362/152]> Fold03 <tibble [5 × 7]> <tibble [0 × 4]>     0
#>  4 <split [1362/152]> Fold04 <tibble [5 × 7]> <tibble [0 × 4]>     0
#>  5 <split [1363/151]> Fold05 <tibble [5 × 7]> <tibble [0 × 4]>     0
#>  6 <split [1363/151]> Fold06 <tibble [5 × 7]> <tibble [0 × 4]>     0
#>  7 <split [1363/151]> Fold07 <tibble [5 × 7]> <tibble [0 × 4]>     0
#>  8 <split [1363/151]> Fold08 <tibble [5 × 7]> <tibble [0 × 4]>     0
#>  9 <split [1363/151]> Fold09 <tibble [5 × 7]> <tibble [0 × 4]>     0
#> 10 <split [1363/151]> Fold10 <tibble [5 × 7]> <tibble [0 × 4]>     0
#> # ℹ 500 more rows
```
:::

As with grid search, we can summarize the results over resamples:

::: {.cell layout-align="center"}

```{.r .cell-code}
estimates <- 
  collect_metrics(search_res) |> 
  arrange(.iter)

estimates
#> # A tibble: 55 × 10
#>         cost rbf_sigma num_comp .metric .estimator  mean     n std_err .config  
#>        <dbl>     <dbl>    <int> <chr>   <chr>      <dbl> <int>   <dbl> <chr>    
#>  1  0.177     1   e-10        0 roc_auc binary     0.357    10  0.112  pre1_mod…
#>  2  0.000977  3.16e- 3        5 roc_auc binary     0.346    10  0.114  pre2_mod…
#>  3  2.38      1   e+ 0       10 roc_auc binary     0.821    10  0.0141 pre3_mod…
#>  4 32         3.16e- 8       15 roc_auc binary     0.349    10  0.114  pre4_mod…
#>  5  0.0131    1   e- 5       20 roc_auc binary     0.347    10  0.116  pre5_mod…
#>  6 31.2       1.61e- 5        0 roc_auc binary     0.877    10  0.0122 iter01   
#>  7  0.00105   3.49e-10       10 roc_auc binary     0.238    10  0.0585 iter02   
#>  8 24.2       4.41e- 2        1 roc_auc binary     0.770    10  0.0109 iter03   
#>  9  3.31      1.06e- 6        6 roc_auc binary     0.347    10  0.115  iter04   
#> 10 20.6       4.71e- 1        0 roc_auc binary     0.814    10  0.0114 iter05   
#> # ℹ 45 more rows
#> # ℹ 1 more variable: .iter <int>
```
…
