…
The resulting tibble is a stacked set of rows of the rsample object with an additional column for the iteration number:


::: {.cell layout-align="center" hash='cache/show-iters_36dc3313d421a4f2e3388ef5a4773148'}

```{.r .cell-code}
search_res
#> # Tuning results
#> # 10-fold cross-validation 
#> # A tibble: 480 × 5
#>    splits             id     .metrics         .notes           .iter
#>    <list>             <chr>  <list>           <list>           <int>
#>  1 <split [1362/152]> Fold01 <tibble [5 × 7]> <tibble [0 × 3]>     0
#>  2 <split [1362/152]> Fold02 <tibble [5 × 7]> <tibble [0 × 3]>     0
#>  3 <split [1362/152]> Fold03 <tibble [5 × 7]> <tibble [0 × 3]>     0
#>  4 <split [1362/152]> Fold04 <tibble [5 × 7]> <tibble [0 × 3]>     0
#>  5 <split [1363/151]> Fold05 <tibble [5 × 7]> <tibble [0 × 3]>     0
#>  6 <split [1363/151]> Fold06 <tibble [5 × 7]> <tibble [0 × 3]>     0
#>  7 <split [1363/151]> Fold07 <tibble [5 × 7]> <tibble [0 × 3]>     0
#>  8 <split [1363/151]> Fold08 <tibble [5 × 7]> <tibble [0 × 3]>     0
#>  9 <split [1363/151]> Fold09 <tibble [5 × 7]> <tibble [0 × 3]>     0
#> 10 <split [1363/151]> Fold10 <tibble [5 × 7]> <tibble [0 × 3]>     0
#> # ℹ 470 more rows
```
:::


As with grid search, we can summarize the results over resamples:


::: {.cell layout-align="center" hash='cache/summarize-iters_658b86df928959f079fa6267607bb02e'}

```{.r .cell-code}
estimates <- 
  collect_metrics(search_res) %>% 
  arrange(.iter)

estimates
#> # A tibble: 52 × 10
#>        cost    rbf_sigma num_comp .metric .estimator  mean     n std_err .config
#>       <dbl>        <dbl>    <int> <chr>   <chr>      <dbl> <int>   <dbl> <chr>  
#>  1  0.00383      2.72e-6       17 roc_auc binary     0.348    10  0.114  Prepro…
#>  2  0.250        1.55e-2        7 roc_auc binary     0.879    10  0.0122 Prepro…
#>  3  0.0372       1.02e-9        3 roc_auc binary     0.242    10  0.0574 Prepro…
#>  4  1.28         8.13e-8        8 roc_auc binary     0.344    10  0.114  Prepro…
#>  5 10.3          1.37e-3       14 roc_auc binary     0.877    10  0.0117 Prepro…
#>  6 29.2          7.07e-1       17 roc_auc binary     0.788    10  0.0111 Iter1  
#>  7 30.4          8.70e-3       13 roc_auc binary     0.895    10  0.0101 Iter2  
#>  8  0.0374       4.25e-3       11 roc_auc binary     0.875    10  0.0123 Iter3  
#>  9 28.8          3.86e-3        4 roc_auc binary     0.874    10  0.0120 Iter4  
#> 10 21.5          7.38e-2       11 roc_auc binary     0.852    10  0.0115 Iter5  
#> # ℹ 42 more rows
#> # ℹ 1 more variable: .iter <int>
```
…
