tidymodels - Dynamic Performance Metrics for Event Time Data
…
Survival Probability Prediction

This censored regression model can make static predictions via the predicted event time using predict(object, type = "time"). It can also create dynamic predictions regarding the probability of survival for each data point at specific times. The syntax for this is

predict(object, new_data, type = "survival", eval_time = numeric())

where eval_time is a vector of time points at which we want the corresponding survivor function estimates. Alternatively, we can use the augment() function to get both types of prediction and automatically attach them to the data.

The largest event time in the training set is 21.083 so we will use a set of evaluation times between zero and 21.

time_points <- seq(0, 21, by = 0.25)

val_pred <- augment(bag_tree_fit, sim_val, eval_time = time_points)
val_pred
#> # A tibble: 500 × 5
#>    .pred             .pred_time event_time    X1      X2
#>    <list>                 <dbl>     <Surv> <dbl>   <dbl>
#>  1 <tibble [85 × 5]>       6.66  4.831957      1 -0.630 
#>  2 <tibble [85 × 5]>       6.66  6.110031      1 -0.606 
#>  3 <tibble [85 × 5]>       7.47  6.597774+     1 -1.03  
#>  4 <tibble [85 × 5]>       3.29  2.717484      1  0.811 
#>  5 <tibble [85 × 5]>       5.10  4.727042+     1 -0.376 
#>  6 <tibble [85 × 5]>       4.99  8.699061      0  1.18  
#>  7 <tibble [85 × 5]>       7.23 10.818670      1 -0.851 
#>  8 <tibble [85 × 5]>       6.46  6.886378      0  0.493 
#>  9 <tibble [85 × 5]>       4.75  2.451893+     1  0.0207
#> 10 <tibble [85 × 5]>      13.4   8.231911+     0 -1.52  
#> # ℹ 490 more rows

The observed data are in the event_time column. The predicted survival probabilities are in the .pred column. This is a list column with a data frame for each observation, containing the predictions at the 85 evaluation time points in the (nested) column .pred_survival.

val_pred$.pred[[1]]
#> # A tibble: 85 × 5
#>    .eval_time .pred_survival .weight_time .pred_censored .weight_censored
#>         <dbl>          <dbl>        <dbl>          <dbl>            <dbl>
#>  1       0             1            0              1                 1   
#>  2       0.25          1            0.250          0.999             1.00
#>  3       0.5           0.999        0.500          0.996             1.00
#>  4       0.75          0.992        0.750          0.993             1.01
#>  5       1             0.988        1.00           0.991             1.01
#>  6       1.25          0.980        1.25           0.987             1.01
#>  7       1.5           0.972        1.50           0.981             1.02
#>  8       1.75          0.959        1.75           0.971             1.03
#>  9       2             0.938        2.00           0.966             1.04
#> 10       2.25          0.925        2.25           0.959             1.04
#> # ℹ 75 more rows
…
How do we compute this using the yardstick package? The function brier_survival() follows the same convention as the other metric functions. The main arguments are:

data: the data frame with the predictions (structured as the output produced by augment(), as shown above).

truth: the name of the column with the Surv object.

...: the name of the column with the dynamic predictions. Within tidymodels, this column is always called .pred. In other words, .pred should be passed without an argument name.

Since the evaluation times and the case weights are within the .pred column, there is no need to specify these. Here are the results of our validation set:

brier_scores <-
  val_pred %>% 
  brier_survival(truth = event_time, .pred)
brier_scores
#> # A tibble: 85 × 4
#>    .metric        .estimator .eval_time .estimate
#>    <chr>          <chr>           <dbl>     <dbl>
#>  1 brier_survival standard         0      0      
#>  2 brier_survival standard         0.25   0      
#>  3 brier_survival standard         0.5    0.00202
#>  4 brier_survival standard         0.75   0.00796
#>  5 brier_survival standard         1      0.0266 
#>  6 brier_survival standard         1.25   0.0402 
#>  7 brier_survival standard         1.5    0.0563 
#>  8 brier_survival standard         1.75   0.0785 
#>  9 brier_survival standard         2      0.0895 
#> 10 brier_survival standard         2.25   0.0951 
#> # ℹ 75 more rows
…
The area under this curve is 0.807.

Since this is a dynamic metric, we compute the AUC for each evaluation time. The syntax is very similar to the Brier code shown above:

roc_scores <-
  val_pred %>% 
  roc_auc_survival(truth = event_time, .pred)
roc_scores
#> # A tibble: 85 × 4
#>    .metric          .estimator .eval_time .estimate
#>    <chr>            <chr>           <dbl>     <dbl>
#>  1 roc_auc_survival standard         0        0.5  
#>  2 roc_auc_survival standard         0.25     0.5  
#>  3 roc_auc_survival standard         0.5      0.869
#>  4 roc_auc_survival standard         0.75     0.852
#>  5 roc_auc_survival standard         1        0.734
#>  6 roc_auc_survival standard         1.25     0.768
#>  7 roc_auc_survival standard         1.5      0.792
#>  8 roc_auc_survival standard         1.75     0.777
#>  9 roc_auc_survival standard         2        0.771
#> 10 roc_auc_survival standard         2.25     0.778
#> # ℹ 75 more rows
…
