…
The holdout data can be predicted:

::: {.cell layout-align="center"}

```{.r .cell-code}
predict(logistic_reg_fit, type = "class", new_data = cls_group_test)
#> # A tibble: 475 × 1
#>    .pred_class 
#>    <fct>       
#>  1 none or mild
#>  2 none or mild
#>  3 none or mild
#>  4 none or mild
#>  5 none or mild
#>  6 none or mild
#>  7 none or mild
#>  8 none or mild
#>  9 none or mild
#> 10 none or mild
#> # ℹ 465 more rows
predict(logistic_reg_fit, type = "prob", new_data = cls_group_test)
#> # A tibble: 475 × 2
#>    `.pred_none or mild` `.pred_moderate or severe`
#>                   <dbl>                      <dbl>
#>  1                0.664                     0.336 
#>  2                0.739                     0.261 
#>  3                0.801                     0.199 
#>  4                0.852                     0.148 
#>  5                0.892                     0.108 
#>  6                0.922                     0.0784
#>  7                0.944                     0.0562
#>  8                0.605                     0.395 
#>  9                0.686                     0.314 
#> 10                0.757                     0.243 
#> # ℹ 465 more rows
```
…
The holdout data can be predicted:

::: {.cell layout-align="center"}

```{.r .cell-code}
predict(logistic_reg_fit, type = "class", new_data = cls_group_test)
#> # A tibble: 475 × 1
#>    .pred_class 
#>    <fct>       
#>  1 none or mild
#>  2 none or mild
#>  3 none or mild
#>  4 none or mild
#>  5 none or mild
#>  6 none or mild
#>  7 none or mild
#>  8 none or mild
#>  9 none or mild
#> 10 none or mild
#> # ℹ 465 more rows
predict(logistic_reg_fit, type = "prob", new_data = cls_group_test)
#> # A tibble: 475 × 2
#>    `.pred_none or mild` `.pred_moderate or severe`
#>                   <dbl>                      <dbl>
#>  1                0.998                 0.00230   
#>  2                0.999                 0.000856  
#>  3                1.000                 0.000319  
#>  4                1.000                 0.000119  
#>  5                1.000                 0.0000441 
#>  6                1.000                 0.0000164 
#>  7                1.000                 0.00000612
#>  8                0.996                 0.00383   
#>  9                0.999                 0.00143   
#> 10                0.999                 0.000533  
#> # ℹ 465 more rows
```
…
The holdout data can be predicted:

::: {.cell layout-align="center"}

```{.r .cell-code}
predict(logistic_reg_fit, type = "class", new_data = cls_group_test)
#> # A tibble: 475 × 1
#>    .pred_class 
#>    <fct>       
#>  1 none or mild
#>  2 none or mild
#>  3 none or mild
#>  4 none or mild
#>  5 none or mild
#>  6 none or mild
#>  7 none or mild
#>  8 none or mild
#>  9 none or mild
#> 10 none or mild
#> # ℹ 465 more rows
predict(logistic_reg_fit, type = "prob", new_data = cls_group_test)
#> # A tibble: 475 × 2
#>    `.pred_none or mild` `.pred_moderate or severe`
#>                   <dbl>                      <dbl>
#>  1                0.652                     0.348 
#>  2                0.734                     0.266 
#>  3                0.802                     0.198 
#>  4                0.856                     0.144 
#>  5                0.898                     0.102 
#>  6                0.928                     0.0721
#>  7                0.950                     0.0502
#>  8                0.617                     0.383 
#>  9                0.692                     0.308 
#> 10                0.759                     0.241 
#> # ℹ 465 more rows
predict(logistic_reg_fit, type = "conf_int", new_data = cls_group_test)
#> # A tibble: 475 × 4
#>    `.pred_lower_none or mild` `.pred_upper_none or mild` .pred_lower_moderate …¹
#>                         <dbl>                      <dbl>                   <dbl>
#>  1                      0.583                      0.715                  0.285 
#>  2                      0.689                      0.776                  0.224 
#>  3                      0.771                      0.832                  0.168 
#>  4                      0.827                      0.883                  0.117 
#>  5                      0.868                      0.924                  0.0761
#>  6                      0.899                      0.952                  0.0482
#>  7                      0.922                      0.970                  0.0302
#>  8                      0.547                      0.683                  0.317 
#>  9                      0.644                      0.736                  0.264 
#> 10                      0.723                      0.791                  0.209 
#> # ℹ 465 more rows
#> # ℹ abbreviated name: ¹​`.pred_lower_moderate or severe`
#> # ℹ 1 more variable: `.pred_upper_moderate or severe` <dbl>
predict(logistic_reg_fit, type = "pred_int", new_data = cls_group_test)
#> # A tibble: 475 × 4
#>    `.pred_lower_none or mild` `.pred_upper_none or mild` .pred_lower_moderate …¹
#>                         <dbl>                      <dbl>                   <dbl>
#>  1                          0                          1                       0
#>  2                          0                          1                       0
#>  3                          0                          1                       0
#>  4                          0                          1                       0
#>  5                          0                          1                       0
#>  6                          0                          1                       0
#>  7                          0                          1                       0
#>  8                          0                          1                       0
#>  9                          0                          1                       0
#> 10                          0                          1                       0
#> # ℹ 465 more rows
#> # ℹ abbreviated name: ¹​`.pred_lower_moderate or severe`
#> # ℹ 1 more variable: `.pred_upper_moderate or severe` <dbl>
```
…
The holdout data can be predicted:

::: {.cell layout-align="center"}

```{.r .cell-code}
predict(logistic_reg_fit, type = "class", new_data = cls_group_test)
#> # A tibble: 475 × 1
#>    .pred_class 
#>    <fct>       
#>  1 none or mild
#>  2 none or mild
#>  3 none or mild
#>  4 none or mild
#>  5 none or mild
#>  6 none or mild
#>  7 none or mild
#>  8 none or mild
#>  9 none or mild
#> 10 none or mild
#> # ℹ 465 more rows
predict(logistic_reg_fit, type = "prob", new_data = cls_group_test)
#> # A tibble: 475 × 2
#>    `.pred_none or mild` `.pred_moderate or severe`
#>                   <dbl>                      <dbl>
#>  1                0.671                     0.329 
#>  2                0.730                     0.270 
#>  3                0.796                     0.204 
#>  4                0.847                     0.153 
#>  5                0.882                     0.118 
#>  6                0.909                     0.0908
#>  7                0.934                     0.0655
#>  8                0.613                     0.387 
#>  9                0.681                     0.319 
#> 10                0.744                     0.256 
#> # ℹ 465 more rows
predict(logistic_reg_fit, type = "conf_int", new_data = cls_group_test)
#> # A tibble: 475 × 4
#>    `.pred_lower_none or mild` `.pred_upper_none or mild` .pred_lower_moderate …¹
#>                         <dbl>                      <dbl>                   <dbl>
#>  1                   0.00184                       1.000             0.0000217  
#>  2                   0.00417                       1.000             0.00000942 
#>  3                   0.00971                       1.000             0.00000412 
#>  4                   0.0214                        1.000             0.00000169 
#>  5                   0.0465                        1.000             0.000000706
#>  6                   0.101                         1.000             0.000000300
#>  7                   0.203                         1.000             0.000000120
#>  8                   0.000923                      1.000             0.0000440  
#>  9                   0.00196                       1.000             0.0000175  
#> 10                   0.00447                       1.000             0.00000724 
#> # ℹ 465 more rows
#> # ℹ abbreviated name: ¹​`.pred_lower_moderate or severe`
#> # ℹ 1 more variable: `.pred_upper_moderate or severe` <dbl>
predict(logistic_reg_fit, type = "pred_int", new_data = cls_group_test)
#> # A tibble: 475 × 4
#>    `.pred_lower_none or mild` `.pred_upper_none or mild` .pred_lower_moderate …¹
#>                         <dbl>                      <dbl>                   <dbl>
#>  1                          0                          1                       0
#>  2                          0                          1                       0
#>  3                          0                          1                       0
#>  4                          0                          1                       0
#>  5                          0                          1                       0
#>  6                          0                          1                       0
#>  7                          0                          1                       0
#>  8                          0                          1                       0
#>  9                          0                          1                       0
#> 10                          0                          1                       0
#> # ℹ 465 more rows
#> # ℹ abbreviated name: ¹​`.pred_lower_moderate or severe`
#> # ℹ 1 more variable: `.pred_upper_moderate or severe` <dbl>
```
…
The holdout data can be predicted:

::: {.cell layout-align="center"}

```{.r .cell-code}
predict(linear_reg_fit, new_data = reg_group_test)
#> # A tibble: 44 × 1
#>    .pred
#>    <dbl>
#>  1  246.
#>  2  250.
#>  3  254.
#>  4  257.
#>  5  261.
#>  6  265.
#>  7  269.
#>  8  270.
#>  9  273.
#> 10  277.
#> # ℹ 34 more rows
```
…
The holdout data can be predicted:

::: {.cell layout-align="center"}

```{.r .cell-code}
predict(linear_reg_fit, new_data = reg_group_test)
#> # A tibble: 44 × 1
#>    .pred
#>    <dbl>
#>  1  246.
#>  2  250.
#>  3  254.
#>  4  257.
#>  5  261.
#>  6  265.
#>  7  269.
#>  8  270.
#>  9  273.
#> 10  277.
#> # ℹ 34 more rows
```
…
The holdout data can be predicted:

::: {.cell layout-align="center"}

```{.r .cell-code}
predict(linear_reg_fit, new_data = reg_group_test)
#> # A tibble: 44 × 1
#>    .pred
#>    <dbl>
#>  1  246.
#>  2  250.
#>  3  254.
#>  4  257.
#>  5  261.
#>  6  265.
#>  7  269.
#>  8  270.
#>  9  273.
#> 10  277.
#> # ℹ 34 more rows
```
…
The holdout data can be predicted:

::: {.cell layout-align="center"}

```{.r .cell-code}
predict(linear_reg_fit, new_data = reg_group_test)
#> # A tibble: 44 × 1
#>    .pred
#>    <dbl>
#>  1  241.
#>  2  245.
#>  3  249.
#>  4  253.
#>  5  256.
#>  6  260.
#>  7  264.
#>  8  265.
#>  9  268.
#> 10  272.
#> # ℹ 34 more rows
```
…
The holdout data can be predicted:

::: {.cell layout-align="center"}

```{.r .cell-code}
predict(linear_reg_fit, new_data = reg_group_test)
#> # A tibble: 44 × 1
#>    .pred
#>    <dbl>
#>  1  246.
#>  2  250.
#>  3  254.
#>  4  257.
#>  5  261.
#>  6  265.
#>  7  269.
#>  8  270.
#>  9  273.
#> 10  277.
#> # ℹ 34 more rows
```
…
The holdout data can be predicted:

::: {.cell layout-align="center"}

```{.r .cell-code}
predict(linear_reg_fit, new_data = reg_group_test)
#> # A tibble: 44 × 1
#>    .pred
#>    <dbl>
#>  1  246.
#>  2  250.
#>  3  254.
#>  4  257.
#>  5  261.
#>  6  265.
#>  7  269.
#>  8  270.
#>  9  273.
#> 10  277.
#> # ℹ 34 more rows
predict(linear_reg_fit, type = "conf_int", new_data = reg_group_test)
#> # A tibble: 44 × 2
#>    .pred_lower .pred_upper
#>          <dbl>       <dbl>
#>  1        240.        252.
#>  2        244.        255.
#>  3        249.        258.
#>  4        253.        262.
#>  5        257.        265.
#>  6        261.        269.
#>  7        265.        273.
#>  8        265.        274.
#>  9        268.        278.
#> 10        271.        282.
#> # ℹ 34 more rows
predict(linear_reg_fit, type = "pred_int", new_data = reg_group_test)
#> # A tibble: 44 × 2
#>    .pred_lower .pred_upper
#>          <dbl>       <dbl>
#>  1        213.        278.
#>  2        216.        282.
#>  3        220.        287.
#>  4        224.        290.
#>  5        228.        292.
#>  6        230.        297.
#>  7        236.        301.
#>  8        236.        302.
#>  9        240.        305.
#> 10        244.        310.
#> # ℹ 34 more rows
```
…
The holdout data can be predicted:

::: {.cell layout-align="center"}

```{.r .cell-code}
predict(linear_reg_fit, new_data = reg_group_test)
#> # A tibble: 44 × 1
#>    .pred
#>    <dbl>
#>  1  246.
#>  2  250.
#>  3  254.
#>  4  258.
#>  5  262.
#>  6  266.
#>  7  269.
#>  8  270.
#>  9  273.
#> 10  277.
#> # ℹ 34 more rows
predict(linear_reg_fit, type = "pred_int", new_data = reg_group_test)
#> # A tibble: 44 × 2
#>    .pred_lower .pred_upper
#>          <dbl>       <dbl>
#>  1        205.        285.
#>  2        211.        289.
#>  3        214.        292.
#>  4        218.        295.
#>  5        221.        300.
#>  6        225.        303.
#>  7        230.        307.
#>  8        230.        309.
#>  9        233.        312.
#> 10        237.        314.
#> # ℹ 34 more rows
```
…
The holdout data can be predicted:

::: {.cell layout-align="center"}

```{.r .cell-code}
predict(poisson_reg_fit, new_data = reg_group_test)
#> # A tibble: 44 × 1
#>    .pred
#>    <dbl>
#>  1  251.
#>  2  254.
#>  3  256.
#>  4  259.
#>  5  262.
#>  6  264.
#>  7  267.
#>  8  268.
#>  9  270.
#> 10  273.
#> # ℹ 34 more rows
```
…
The holdout data can be predicted:

::: {.cell layout-align="center"}

```{.r .cell-code}
predict(poisson_reg_fit, new_data = reg_group_test)
#> # A tibble: 44 × 1
#>    .pred
#>    <dbl>
#>  1  5.53
#>  2  5.54
#>  3  5.55
#>  4  5.56
#>  5  5.57
#>  6  5.58
#>  7  5.59
#>  8  5.59
#>  9  5.60
#> 10  5.61
#> # ℹ 34 more rows
predict(poisson_reg_fit, type = "conf_int", new_data = reg_group_test)
#> Instead of posterior_linpred(..., transform=TRUE) please call posterior_epred(), which provides equivalent functionality.
#> # A tibble: 44 × 2
#>    .pred_lower .pred_upper
#>          <dbl>       <dbl>
#>  1        246.        257.
#>  2        249.        259.
#>  3        252.        261.
#>  4        255.        263.
#>  5        258.        266.
#>  6        261.        269.
#>  7        263.        272.
#>  8        264.        272.
#>  9        266.        275.
#> 10        268.        278.
#> # ℹ 34 more rows
predict(poisson_reg_fit, type = "pred_int", new_data = reg_group_test)
#> # A tibble: 44 × 2
#>    .pred_lower .pred_upper
#>          <dbl>       <dbl>
#>  1         220         284
#>  2         222         286
#>  3         225         288
#>  4         228         291
#>  5         230         296
#>  6         232         297
#>  7         235         300
#>  8         236         300
#>  9         238         303
#> 10         241         306
#> # ℹ 34 more rows
```
…
The holdout data can be predicted:

::: {.cell layout-align="center"}

```{.r .cell-code}
predict(poisson_reg_fit, new_data = reg_group_test)
#> # A tibble: 44 × 1
#>    .pred
#>    <dbl>
#>  1  251.
#>  2  254.
#>  3  256.
#>  4  259.
#>  5  261.
#>  6  264.
#>  7  267.
#>  8  268.
#>  9  270.
#> 10  272.
#> # ℹ 34 more rows
predict(poisson_reg_fit, type = "pred_int", new_data = reg_group_test)
#> # A tibble: 44 × 2
#>    .pred_lower .pred_upper
#>          <dbl>       <dbl>
#>  1        210.        294 
#>  2        213         298 
#>  3        214         301 
#>  4        217         304 
#>  5        220         306 
#>  6        222         309 
#>  7        223         313.
#>  8        225         315 
#>  9        226         317.
#> 10        229         320 
#> # ℹ 34 more rows
```
…
