How long until building complaints are dispositioned? A survival analysis case study – tidymodels
…
set.seed(1)
survreg_res <- fit_resamples(
  survreg_wflow,
  resamples = complaints_rset,
  metrics = survival_metrics,
  eval_time = evaluation_time_points, 
  control = control_resamples(save_pred = TRUE)
)

The structure of survival model predictions is slightly different from classification and regression model predictions:

preds <- collect_predictions(survreg_res)
preds
#> # A tibble: 847 × 6
#>    .pred             .pred_time id          .row disposition_surv .config       
#>    <list>                 <dbl> <chr>      <int>           <Surv> <chr>         
#>  1 <tibble [11 × 3]>       96.6 validation  2541              35+ Preprocessor1…
#>  2 <tibble [11 × 3]>       18.7 validation  2542             129+ Preprocessor1…
#>  3 <tibble [11 × 3]>       29.5 validation  2543               4+ Preprocessor1…
#>  4 <tibble [11 × 3]>       29.8 validation  2544               5+ Preprocessor1…
#>  5 <tibble [11 × 3]>       24.8 validation  2545               1+ Preprocessor1…
#>  6 <tibble [11 × 3]>       58.4 validation  2546              76+ Preprocessor1…
#>  7 <tibble [11 × 3]>       71.3 validation  2547              51+ Preprocessor1…
#>  8 <tibble [11 × 3]>      102.  validation  2548              44+ Preprocessor1…
#>  9 <tibble [11 × 3]>       47.1 validation  2549              15+ Preprocessor1…
#> 10 <tibble [11 × 3]>       28.5 validation  2550              61+ Preprocessor1…
#> # ℹ 837 more rows
…
