…
Let's take a quick look at the data:


::: {.cell layout-align="center" hash='cache/unnamed-chunk-5_1e4ae78769856ab4fcf4afd423a5a206'}

```{.r .cell-code}
urchins
#> # A tibble: 72 × 3
#>    food_regime initial_volume width
#>    <fct>                <dbl> <dbl>
#>  1 Initial                3.5 0.01 
#>  2 Initial                5   0.02 
#>  3 Initial                8   0.061
#>  4 Initial               10   0.051
#>  5 Initial               13   0.041
#>  6 Initial               13   0.061
#>  7 Initial               15   0.041
#>  8 Initial               15   0.071
#>  9 Initial               16   0.092
#> 10 Initial               17   0.051
#> # ℹ 62 more rows
```
…
