Accounting for Censoring in Performance Metrics for Event Time Data – tidymodels
…
Using this model, we can make predictions of different types and augment() provides us with a version of the data augmented with the various predictions. Here we are interested in the predicted probability of survival at different evaluation time points. The largest event time in the training set is 21.083 so we will use a set of evaluation times between zero and 21.

time_points <- seq(0, 21, by = 0.25)

val_pred <- augment(bag_tree_fit, sim_val, eval_time = time_points)
val_pred
#> # A tibble: 500 × 5
#>    .pred             .pred_time event_time    X1      X2
#>    <list>                 <dbl>     <Surv> <dbl>   <dbl>
#>  1 <tibble [85 × 5]>       6.66  4.831957      1 -0.630 
#>  2 <tibble [85 × 5]>       6.66  6.110031      1 -0.606 
#>  3 <tibble [85 × 5]>       7.47  6.597774+     1 -1.03  
#>  4 <tibble [85 × 5]>       3.29  2.717484      1  0.811 
#>  5 <tibble [85 × 5]>       5.10  4.727042+     1 -0.376 
#>  6 <tibble [85 × 5]>       4.99  8.699061      0  1.18  
#>  7 <tibble [85 × 5]>       7.23 10.818670      1 -0.851 
#>  8 <tibble [85 × 5]>       6.46  6.886378      0  0.493 
#>  9 <tibble [85 × 5]>       4.75  2.451893+     1  0.0207
#> 10 <tibble [85 × 5]>      13.4   8.231911+     0 -1.52  
#> # ℹ 490 more rows

The observed data are in the event_time column. The predicted survival probabilities are in the .pred column. This is a list column with a data frame for each observation, containing the predictions at the 85 evaluation time points in the (nested) column .pred_survival.

val_pred$.pred[[1]]
#> # A tibble: 85 × 5
#>    .eval_time .pred_survival .weight_time .pred_censored .weight_censored
#>         <dbl>          <dbl>        <dbl>          <dbl>            <dbl>
#>  1       0             1            0              1                 1   
#>  2       0.25          1            0.250          0.999             1.00
#>  3       0.5           0.999        0.500          0.996             1.00
#>  4       0.75          0.992        0.750          0.993             1.01
#>  5       1             0.988        1.00           0.991             1.01
#>  6       1.25          0.980        1.25           0.987             1.01
#>  7       1.5           0.972        1.50           0.981             1.02
#>  8       1.75          0.959        1.75           0.971             1.03
#>  9       2             0.938        2.00           0.966             1.04
#> 10       2.25          0.925        2.25           0.959             1.04
#> # ℹ 75 more rows
…
