Model tuning using a sparse matrix – tidymodels
…
Modeling

We start by loading tidymodels and the sparsevctrs package. The sparsevctrs package includes some helper functions that will allow us to more easily work with sparse matrices in tidymodels.

library(tidymodels)
library(sparsevctrs)

While sparse matrices now work in parsnip, recipes, and workflows directly, we can use rsample’s sampling functions as well if we turn it into a tibble. The usual as_tibble() would turn the object to a dense representation, greatly expanding the object size. However, sparsevctrs’ coerce_to_sparse_tibble() will create a tibble with sparse columns, which we call a sparse tibble.

reviews_tbl <- coerce_to_sparse_tibble(reviews)
reviews_tbl
#> # A tibble: 15,000 × 24,818
#>    SCORE     a   all   and appreciates    be better bought canned   dog finicky
#>    <dbl> <dbl> <dbl> <dbl>       <dbl> <dbl>  <dbl>  <dbl>  <dbl> <dbl>   <dbl>
#>  1     1     2     1     3           1     1      2      1      1     1       1
#>  2     0     0     0     0           0     0      0      0      0     0       0
#>  3     0     4     0     6           0     0      0      0      0     0       0
#>  4     0     0     0     1           0     0      0      0      0     0       0
#>  5     1     4     0     0           0     0      0      0      0     0       0
#>  6     0     3     1     2           0     0      0      0      0     0       0
#>  7     1     1     0     3           0     0      0      0      0     0       0
#>  8     1     0     0     1           0     0      0      0      0     0       0
#>  9     1     0     0     1           0     0      0      0      0     0       0
#> 10     1     1     0     0           0     0      0      0      0     2       0
#> # ℹ 14,990 more rows
#> # ℹ 24,807 more variables: food <dbl>, found <dbl>, good <dbl>, have <dbl>,
#> #   i <dbl>, is <dbl>, it <dbl>, labrador <dbl>, like <dbl>, looks <dbl>,
#> #   meat <dbl>, more <dbl>, most <dbl>, my <dbl>, of <dbl>, processed <dbl>,
#> #   product <dbl>, products <dbl>, quality <dbl>, several <dbl>, she <dbl>,
#> #   smells <dbl>, stew <dbl>, than <dbl>, the <dbl>, them <dbl>, this <dbl>,
#> #   to <dbl>, vitality <dbl>, actually <dbl>, an <dbl>, arrived <dbl>, …
…
We can now finalize the workflow and fit the final model on the training data set.

wf_final <- finalize_workflow(
  wf_spec, 
  select_best(tune_res, metric = "roc_auc")
)

wf_fit <- fit(wf_final, review_train)

With this fitted model, we can now predict with a sparse tibble.

predict(wf_fit, review_test)
#> # A tibble: 3,750 × 1
#>    .pred_class
#>    <fct>      
#>  1 other      
#>  2 great      
#>  3 great      
#>  4 great      
#>  5 great      
#>  6 great      
#>  7 great      
#>  8 great      
#>  9 great      
#> 10 great      
#> # ℹ 3,740 more rows

fit() and predict() both accept sparse matrices as input. However if you want to tune a model with the tune package or perform data splitting with rsample then you will need a tibble, which can be done with coerce_to_sparse_tibble().

This means that we could technically do predictions on our model directly on the sparse matrix using predict().

predict(wf_fit, reviews)
#> # A tibble: 15,000 × 1
#>    .pred_class
#>    <fct>      
#>  1 great      
#>  2 other      
#>  3 great      
#>  4 great      
#>  5 great      
#>  6 other      
#>  7 great      
#>  8 great      
#>  9 great      
#> 10 great      
#> # ℹ 14,990 more rows
…
