An introduction to calibration with tidymodels – tidymodels
…
These metric estimates are very consistent with the resampled performance estimates.

We can then use our cell_cal object with the cal_apply() function:

cell_test_cal_pred <-
  cell_test_pred %>%
  cal_apply(cell_cal)
cell_test_cal_pred %>% dplyr::select(class, starts_with(".pred_"))
#> # A tibble: 505 × 4
#>    class .pred_class .pred_PS .pred_WS
#>    <fct> <fct>          <dbl>    <dbl>
#>  1 PS    PS            0.881    0.119 
#>  2 WS    WS            0.217    0.783 
#>  3 WS    WS            0.0756   0.924 
#>  4 PS    PS            0.832    0.168 
#>  5 PS    PS            0.946    0.0545
#>  6 WS    WS            0.211    0.789 
#>  7 PS    PS            0.851    0.149 
#>  8 PS    PS            0.723    0.277 
#>  9 WS    WS            0.342    0.658 
#> 10 WS    PS            0.603    0.397 
#> # ℹ 495 more rows
…
