Dynamic Performance Metrics for Event Time Data – tidymodels
…
Survival Probability Prediction

This censored regression model can make static predictions via the predicted event time using predict(object, type = "time"). It can also create dynamic predictions regarding the probability of survival for each data point at specific times. The syntax for this is

predict(object, new_data, type = "survival", eval_time = numeric())

where eval_time is a vector of time points at which we want the corresponding survivor function estimates. Alternatively, we can use the augment() function to get both types of prediction and automatically attach them to the data.

We’ll use a finer grid than the case study with a maximum evaluation time of 200 days for this analysis.

time_points <- seq(0, 200, by = 10)

val_pred <- augment(complaints_fit, complaints_val, eval_time = time_points)
val_pred
#> # A tibble: 847 × 12
#>    .pred    .pred_time year_entered latitude longitude borough  special_district
#>    <list>        <dbl> <fct>           <dbl>     <dbl> <fct>    <fct>           
#>  1 <tibble>       96.6 2023             40.7     -73.8 Queens   None            
#>  2 <tibble>       18.7 2023             40.8     -74.0 Manhatt… None            
#>  3 <tibble>       29.5 2023             40.6     -74.0 Brooklyn None            
#>  4 <tibble>       29.8 2023             40.7     -73.8 Queens   None            
#>  5 <tibble>       24.8 2023             40.7     -74.0 Manhatt… None            
#>  6 <tibble>       58.4 2023             40.6     -74.0 Brooklyn None            
#>  7 <tibble>       71.3 2023             40.7     -73.9 Brooklyn None            
#>  8 <tibble>      102.  2023             40.7     -73.7 Queens   None            
#>  9 <tibble>       47.1 2023             40.7     -74.0 Brooklyn None            
#> 10 <tibble>       28.5 2023             40.6     -74.0 Brooklyn None            
#> # ℹ 837 more rows
#> # ℹ 5 more variables: unit <fct>, community_board <fct>,
#> #   complaint_category <fct>, complaint_priority <fct>, disposition_surv <Surv>

The observed data are in the disposition_surv column. The predicted survival probabilities are in the .pred column. This is a list column with a data frame for each observation, containing the predictions at the 21 evaluation time points in the (nested) column .pred_survival.

val_pred$.pred[[1]]
#> # A tibble: 21 × 5
#>    .eval_time .pred_survival .weight_time .pred_censored .weight_censored
#>         <dbl>          <dbl>        <dbl>          <dbl>            <dbl>
#>  1          0          1             0             1                 1   
#>  2         10          0.847        10.00          0.988             1.01
#>  3         20          0.750        20.0           0.976             1.02
#>  4         30          0.673        30.0           0.963             1.04
#>  5         40          0.608        NA            NA                NA   
#>  6         50          0.552        NA            NA                NA   
#>  7         60          0.504        NA            NA                NA   
#>  8         70          0.461        NA            NA                NA   
#>  9         80          0.423        NA            NA                NA   
#> 10         90          0.388        NA            NA                NA   
#> # ℹ 11 more rows
…
How do we compute this using the yardstick package? The function brier_survival() follows the same convention as the other metric functions. The main arguments are:

data: the data frame with the predictions (structured as the output produced by augment(), as shown above).

truth: the name of the column with the Surv object.

...: the name of the column with the dynamic predictions. Within tidymodels, this column is always called .pred. In other words, .pred should be passed without an argument name.

Since the evaluation times and the case weights are within the .pred column, there is no need to specify these. Here are the results of our validation set:

brier_scores <-
  val_pred |> 
  brier_survival(truth = disposition_surv, .pred)
brier_scores
#> # A tibble: 21 × 4
#>    .metric        .estimator .eval_time .estimate
#>    <chr>          <chr>           <dbl>     <dbl>
#>  1 brier_survival standard            0    0     
#>  2 brier_survival standard           10    0.177 
#>  3 brier_survival standard           20    0.168 
#>  4 brier_survival standard           30    0.160 
#>  5 brier_survival standard           40    0.156 
#>  6 brier_survival standard           50    0.138 
#>  7 brier_survival standard           60    0.121 
#>  8 brier_survival standard           70    0.0954
#>  9 brier_survival standard           80    0.0808
#> 10 brier_survival standard           90    0.0697
#> # ℹ 11 more rows
…
The area under this curve is 0.822.

Since this is a dynamic metric, we compute the AUC for each evaluation time. The syntax is very similar to the Brier code shown above:

roc_scores <-
  val_pred |> 
  roc_auc_survival(truth = disposition_surv, .pred)
roc_scores
#> # A tibble: 21 × 4
#>    .metric          .estimator .eval_time .estimate
#>    <chr>            <chr>           <dbl>     <dbl>
#>  1 roc_auc_survival standard            0     0.5  
#>  2 roc_auc_survival standard           10     0.822
#>  3 roc_auc_survival standard           20     0.831
#>  4 roc_auc_survival standard           30     0.831
#>  5 roc_auc_survival standard           40     0.815
#>  6 roc_auc_survival standard           50     0.811
#>  7 roc_auc_survival standard           60     0.789
#>  8 roc_auc_survival standard           70     0.794
#>  9 roc_auc_survival standard           80     0.790
#> 10 roc_auc_survival standard           90     0.784
#> # ℹ 11 more rows
…
