Fair prediction of hospital readmission: a machine learning fairness case study – tidymodels
…
These programs seek to improve the care of patients with complex health needs by providing additional resources, including greater attention from trained providers, to help ensure that care is well coordinated. Most health systems use these programs as the cornerstone of population health management efforts, and they are widely considered effective at improving outcomes and satisfaction while reducing costs. […] Because the programs are themselves expensive—with costs going toward teams of dedicated nurses, extra primary care appointment slots, and other scarce resources—health systems rely extensively on algorithms to identify patients who will benefit the most.

They argue in their analysis that the model in question exhibits substantial racial bias, where “Black patients assigned the same level of risk by the algorithm are sicker than White patients.” In practice, this resulted in the reduction of “the number of Black patients identified for extra care by more than half.”

This article will demonstrate a fairness-oriented workflow for training a machine learning model to identify high-risk patients. Throughout the model development process, we’ll consider the social impacts that different modeling decisions may have when such a model is deployed in context.

Setup

The data we’ll use in this analysis is a publicly available database containing information on 71,515 hospital stays from diabetes patients. The data comes from a study by Strack et al. (2014), where the authors model the effectiveness of a particular lab test in predicting readmission. A version of that data is available in the readmission R package:

library(readmission)

readmission
#> # A tibble: 71,515 × 12
#>    readmitted race   sex   age   admission_source blood_glucose insurer duration
#>    <fct>      <fct>  <fct> <fct> <fct>            <fct>         <fct>      <dbl>
#>  1 Yes        Afric… Male  [60-… Referral         <NA>          <NA>           7
#>  2 No         Cauca… Fema… [50-… Emergency        Normal        Private        4
#>  3 Yes        Cauca… Fema… [70-… Referral         <NA>          Medica…        5
#>  4 No         Cauca… Fema… [80-… Referral         <NA>          Private        5
#>  5 No         Cauca… Fema… [70-… Referral         <NA>          <NA>           4
#>  6 No         Cauca… Male  [50-… Emergency        Very High     <NA>           2
#>  7 Yes        Afric… Fema… [70-… Referral         <NA>          Private        3
#>  8 No         Cauca… Fema… [20-… Emergency        <NA>          <NA>           1
#>  9 No         Cauca… Male  [60-… Other            <NA>          <NA>          12
#> 10 No         Cauca… Fema… [80-… Referral         <NA>          Medica…        1
#> # ℹ 71,505 more rows
#> # ℹ 4 more variables: n_previous_visits <dbl>, n_diagnoses <dbl>,
#> #   n_procedures <dbl>, n_medications <dbl>
…
The fairness metrics demographic_parity(), equal_opportunity(), and equalized_odds() all take values very close to zero for many models. Also, the metric values are highly correlated with each other, including correlations between fairness metrics and the more general-purpose performance metrics. That is, the most performant models also seem to be among the most fair.

More concretely, we can rank the model configurations to examine only the most performant models:

rank_results(wflow_set_fit, rank_metric = "roc_auc") %>%
  filter(.metric == "roc_auc")
#> # A tibble: 42 × 9
#>    wflow_id .config         .metric  mean std_err     n preprocessor model  rank
#>    <chr>    <chr>           <chr>   <dbl>   <dbl> <int> <chr>        <chr> <int>
#>  1 age_bt   Preprocessor1_… roc_auc 0.605 0.00424    10 recipe       boos…     1
#>  2 basic_bt Preprocessor1_… roc_auc 0.605 0.00423    10 recipe       boos…     2
#>  3 age_bt   Preprocessor1_… roc_auc 0.604 0.00378    10 recipe       boos…     3
#>  4 age_bt   Preprocessor1_… roc_auc 0.603 0.00421    10 recipe       boos…     4
#>  5 basic_bt Preprocessor1_… roc_auc 0.603 0.00410    10 recipe       boos…     5
#>  6 basic_bt Preprocessor1_… roc_auc 0.603 0.00436    10 recipe       boos…     6
#>  7 age_bt   Preprocessor1_… roc_auc 0.602 0.00372    10 recipe       boos…     7
#>  8 basic_nn Preprocessor1_… roc_auc 0.602 0.00403    10 recipe       bag_…     8
#>  9 age_nn   Preprocessor1_… roc_auc 0.600 0.00431    10 recipe       bag_…     9
#> 10 age_nn   Preprocessor1_… roc_auc 0.600 0.00412    10 recipe       bag_…    10
#> # ℹ 32 more rows
…
